idiom,year,meaning,examples
小你個區,2021,網民認為「小區」並非廣東話，Ben Sir笑指如果大家不喜歡「小區」，可以把它改為「小你個區」，就會馬上變為廣東話，輕易將外語變成母語。,小你個區要強制檢測！
阿姨我不想努力了,2020,「阿姨我不想努力了」是「食軟飯、求包養」的暗號，代表年輕男生不想努力，無心奮鬥，只想享受生活，願意放棄戀愛，以肉體換取生活富足。,"1. 「阿姨，我想通了」
「終於想通了」
「嗯，不想努力了」
「明天飛過來吧，這樣5萬元給你路上買點吃的」
「謝謝阿姨！我馬上訂機票」

2. 點解佢咁後生就可以退休，唔通係阿姨我不想努力了？"
哭𠹌佐,2020,讀音和意思都跟「哭撚咗」一樣，源於Facebook網絡紅人matt leung。,唉，聽日blue Monday，哭𠹌佐。
siu4,2020,siu4是笑死的諧音。,"1. 佢竟然連咁簡單既問題都唔識答，真系siu4人
2. 哈哈，條片真係好痴線，siu4"
世一,2020,世一為「世界第一」的簡寫。,"1. 呢間日本餐廳既拉麵絕對係世一！
2. 美斯係我心目中永遠係世一。
3. 佢真係堅勁揪，就算唔係世一都係世二。"
simp,2020,Simp為「Simpleton」的縮寫，原指頭腦簡單的傻子，現指飢渴的男性，對心儀的女生無條件付出，心甘情願為她做任何事情，簡單來說就是「觀音兵」的意思。,聽我講，回頭是岸，唔好再做simp了！
見字飲水,2020,"近日不少網民在社交平台發「見字飲水」貼文，提醒各位多喝水補充水份，保持身體健康。社交平台Facebook及Instagram更出現了「見字飲水協會」專頁，每次出Post均會附上Hashtag「#見字飲水」。此外，藝人林日亦推出了專輯《見字飲水》，親自作詞作曲。

相關連結：
Facebook見字飲水協會
Instagram見字飲水協會
林日曦《見字飲水》",大家請見字飲水，注意身體健康。
風林火山,2020,"2020年6月25日多名防暴警察於一次行動中在制服上貼上有「風林火山」字樣的布章，警方指布章是用作提升團隊精神及士氣。

「風林火山」原句為「其疾如風，其徐如林，侵掠如火，不動如山」，出自春秋戰國時期的《孫子兵法》。日本戰國時代甲斐國將領武田信玄每次出征都會帶著一面寫有「疾如風，徐如林，侵掠如火，不動如山」的軍旗。「其疾如風」的意思是軍隊行軍時迅疾如風，「其徐如林」指軍陣像樹林般井然有序，「侵掠如火」指進攻時像熊熊烈火般迅速蔓延，「不動如山」指防守時要像山嶽般屹立不搖。",元朗行動中有很多風林火山。
BlackLivesMatter,2020,Black Lives Matter簡寫為BLM，是一場起源於美國的抗議種族歧視運動。Black Lives Matter簡寫為BLM，中文可譯作「黑人的命也是命」或「黑人的生命同樣寶貴」。,2020年5月非裔美國人George Floyd被白人警員暴力執法致死，引發美國全國「Black Lives Matter」反種族歧視運動，其後更蔓延至世界各地。
Blackout Tuesday,2020,美國非裔男子George Floyd在被扣押時被白人警員殺害，音樂產業2020年6月2日發起「暗黑星期二」（Blackout Tuesday）活抗議種族歧視和警暴，音樂串流平台Spotify亦有響應是次活動，網民亦紛紛於社交平台發佈一張黑色照片並留下hashtag #blackouttuesday 以表支持。,抗議種族歧視！抗議警暴！#blackouttuesday
WFHF,2020,WFHF為「Work From Home Forever」的縮寫，即永遠在家工作的意思。,2020年新冠肺炎爆發期間，多間企業決定實行WFHF。
斷頭台,2020,是指香港電台，香港電台在星期二宣佈暫時中斷頭條新聞，成為斷頭台。,香港嘅言論自由被送上斷頭台。
曼德拉效應,2020,"特首林鄭會見傳媒時引述南非已故前總統曼德拉的名言「教育的崩潰足以摧毀一個國家」（The collapse of education is the collapse of the nation），後來網民發現這句說話並非出自曼德拉，而是出自一位不知名的大學教授。其後曼德拉基金會更認真地翻查逾1500篇曼德拉演辭的資料庫、曼德拉名言書籍及作品，但都沒有找到這句名言。其後有網民將曼德拉的照片隨機配上不同的字句，並以潮語「曼德拉效應」來諷刺林鄭錯誤引述曼德名言一事。

「曼德拉效應」原本的意思是指一班沒有關聯的人不知甚麼原因對某件事物有著同樣的錯誤記憶，詳情可參閱這篇文章。",林鄭錯誤引述曼德名言一事被戲稱為曼德拉效應。
底褲口罩,2020,香港政府於2020年新冠肺炎爆發期間向全港市民派發可重用口罩CU Mask，因為外型像內褲所以被網民稱為「底褲口罩」或「內褲口罩」。,你拎左「底褲口罩」未呀？有香港身份證就攞得，上qmask.gov.hk登記就得，兩星期內會以郵政派送方式送上門。
Staycation,2020,"staycation是由「Stay（逗留）」及「Vacation（假期）」兩字組成，亦可以寫成「Stay-at-home vacation」，中文也可譯作「宅度假」，意思是逗留在家附近渡過悠閒假期。

大家放假通常會出國旅遊，但在2020年新冠肺炎疫情期間不少國家都封關了，市民都無法再出國旅遊，Staycation一詞因而紅爆網絡。",年尾要清假，但封左關又唔去得旅行，唯有去酒店staycation啦。
吊高你媽過海,2020,與DLLM同義，出自Facebook網紅Matt Leung。,我吊高你媽過海，依個時候仲去旅行？
奶茶聯盟,2020,2020年nnevvy戰役爆發，中國小粉紅軍團於社交平台攻擊泰國網民，泰國、台灣及香港網民組成「奶茶聯盟 Milk Tea Alliance」抵抗。,小粉紅對奶茶聯盟的戰事很緊湊。
NMSL,2020,"「你媽死了」的諧音，用作侮辱對方。也可以配搭「NMSL, WSND, HIYZ」一起用，全句意思是「你媽死了，我是你爹，回家養豬」。",NMSL 你也去死吧！
nnevvy,2020,泰國男星Bright曾於KOL女友的社交平台貼文中留言稱她像個中國女孩，Nnevvy則回覆表示是台灣風格，引起中國網民不滿，亦有網民發現Nnevvy曾經轉發過提及「武漢肺炎」的文章。中國網民紛紛到Twitter以hashtag #nnevvy 攻擊Bright和Nnevvy，泰國網民亦同樣以hashtag #nnevvy 反擊中國網民，引發一場中泰大戰。其後越南、菲律賓等地的網民亦加入戰場，令戰役升級成一場國際大戰。,估唔到一句台灣女孩竟然引發nnevvy中泰大戰。
車巴,2020,車巴是指有車的巴打。,"1. 有冇人想睇星？想搵車巴打一齊睇。
2. 今晚有車聚，有無車巴想一齊去？"
Happy仔,2020,Happy仔是微辣的吉祥物，以微辣CEO六豪子為藍本。,要唔要買包Happy仔開心果？聽聞食完會開心啲。
炒罩,2020,以高價炒賣口罩(尤其藥房)。,"1.哇！500蚊買一盒口罩，簡直係「炒罩」！
2.嗰間藥房「炒罩」㗎，唔好再去嗰間藥房啦/冇良心！良心"
人地,2020,「人地」是指人地男朋友、人地女朋友、人地老公或人地老婆。常見於交友app，在個人資料頁寫上「人地」即表示已經有另一半。,"喂，呢個「25肌肉巴人地」岩你呀！

註：「25肌肉巴人地」是指有女朋友的25歲肌肉男。"
紀巴,2020,紀巴是指任職紀律部隊的巴打，而任職紀律部隊的絲打可稱作紀絲。,聽聞新加入果位師兄係紀巴。
消巴,2020,消巴是指任職消防員的巴打，而任職消防員的絲打可稱作消絲。,下星期會有位新同學黎學潛水，聽聞佢係係消巴，好期待啊！
WFH activity,2020,Work from Home Activity的簡寫，指行山。,2020年武漢肺炎爆發期間，6名恆生銀行的管理培訓生(MT)將行山照片上傳至Instagram並標上「Best WFH activity」，因而被揭發在Work from Home期間相約行山。
邊爐家族,2020,2020年武漢肺炎爆發期間，一個家族共19人相約打邊爐，其後當中11人確診感染武漢肺炎，邊爐家族是指這個家族。,邊爐家族事件發生後，多間快餐店相繼暫停打邊爐。
行山銀行,2020,指恆生銀行。,2020年武漢肺炎爆發期間，香港多間企業為防止疫情於社區擴散，容許員工在家工作。有6名恆生銀行的管理培訓生(MT)被發現在Work from Home期間相約一同行山，並將合照上傳至Instagram，網民戲稱恆生銀行為行山銀行。
R.A.P.,2020,曾經有網民將R.I.P.錯打成R.A.P，被其他網民不斷引用，後來引申出「抵死」之意思。,今次你仲唔死？RAP
2盒thx,2020,"2020年武漢肺炎肆虐，口罩嚴重短缺。由於政府無法解決口罩短缺問題，全港藥房、網店、民間組識、甚至時裝店、餐廳等等都紛紛從外國努力搜購口罩再於網上向市民出售，由於供應嚴重不足，所以一般會限制每人只可買2盒。市民只要在Facebook見到任何有口罩出售的帖子都會紛紛留言「2盒thx」，這些帖子通常會在極短時間內累積到數千甚至數萬個「2盒thx」留言。

其他常見留言：
「2盒 thanks」
「2盒 謝謝」
「2盒 好人一生平安」","小明：「我明天去日本了！」
網民A：「2盒thx」
網民B：「2盒 謝謝」
網民C：「2盒 好人一生平安」"
中玄毒,2020,韓劇《愛的迫降》大受歡迎，男主角玄彬俘虜了萬千女士的心，這個現像稱為「中玄毒」。,我想我中玄毒了，連夜晚發夢都見到玄彬。
考第一,2020,指特首林鄭月娥。,特首林鄭月娥稱自己由小學到大學幾乎每次考試都考第一，其中一次因為得不到第一名而哭成淚人。
C9,2020,「師奶」的諧音。,"1. 隔離屋個花C9買股票好叻架，我跟佢買賺左唔少。
2. 哇，欣欣做乜著到成個C9咁？"
加持,2019,「加持」是指有知名度高的人（如明星、政府高官等）去支持某件事。,"1. 經部門主管加持後，同事們成功爭取加薪！
2. 經特首「加持」後，原本的100萬人遊行已升級為200萬人大遊行。"
TB,2019,"TB是Throwback的簡寫，有復古、懷舊、以前的意思，在Instagram加上#TB hash tag即表示這張照片是舊照片。

TB亦是Tomboy的簡寫，指打扮或行為舉止傾向男性化的女同性戀者。","1. 呢相係上年去旅行既相 #tb

2. 原來隔離班個嘉莉係Tomboy。"
草管人命,2019,指「草菅人命」。警方於記者招待會中將「草菅」兩字錯讀成「草管」，有網民因此以「草管人命」來諷刺警方。,人命無價，任何人都絕不可以草菅人命。
fc,2019,Fact Check的簡寫，形容已經找到證據去證明一件事。相反，「未fc」是指未找到證據去證明一件事。,"1. 老闆今日請病假，已fc！
2. 有消息話隔離department個小娥未人炒左尤魚！未fc"
自high,2019,形容一個人自我陶醉，或自我情緒高漲，但旁人完全沒有反應。,老師做咩係度自high，講完個爛gag自己係度笑，全場無人理佢...
sls,2019,"SLS全名是Speech Level Singing，是一種唱歌方法，由世界頂尖聲樂大師Seth Riggs發明，不少著名歌手包括Michael Jackson米高積遜、麥當娜、王力宏、林俊傑、鄧紫棋都曾學習SLS唱法。

SLS亦是Siu Lun Say（笑撚死）的簡寫，形容一件事極度好笑。","1. 邊度有得學sls? 聽說林俊傑也是用sls唱法。
2. 竟然有人講得呢間壽司好食，真係sls，佢地係唔係味覺有問題？"
jeng,2019,「正」的英文譯音。,"1. 呢間餐廳既海南雞飯好jeng呀！
2. 多謝你地幫我搞farewell，我今晚玩得好開心，有你地呢班同事真係好jeng！"
汪阿Tag,2019,"Instagram內建標籤朋友功能，用家可以於相片中tag朋友。汪阿姐選擇不使用內建標籤功能，改以人手寫名的方式tag人，創造做出新的潮流，因而被稱為「汪阿Tag」。

汪阿Tag可以用作汪阿Tag的代名詞，亦可用來形容汪阿Tag所創造的tag人方法。","1. 新出果個節目汪阿Tag有份主持，幾好笑架！
2. 而家潮流興汪阿Tag。"
裝修,2019,2019年反送中示威中，不少商店在示威期間被破壞，這種破壞商店的行為被稱為「裝修」。,昨晚多間茶餐廳被裝修。
偽黃,2019,假冒黃絲或假冒黃店。,果間係偽黃店，為左賺錢扮黃，唔好中計。
人血饅頭,2019,"「人血饅頭」指抗爭者的鮮血。
「吃人血饅頭」是指以抗爭者的鮮血來達至某些目的。",出自魯迅的短篇小說《藥》。小說中革命者被處決後，鮮血被用來製成人血饅頭，傳聞指人血饅頭能醫百病。
攬炒,2019,玉石俱焚，大家攬住一齊死的意思。,政府漠視民意，一意孤行，有示威者已做好攬炒的決心準備。
sfs,2019,「Shout out for shout out」的縮寫，意思是於社交平台互相轉發對方的post，達至互相宣傳的效果。,而家啲人咁鐘意玩sfs..
時代垃圾,2019,時代垃圾是藍絲對黃絲的不尊重稱呼。,2019年反送中示威中，反對運動者把口號「時代革命」改為「時代垃圾」。
發炎鉛筆,2019,盛滿英女士在《禁止蒙面規例小組委員會公眾聽證會》中「發言完畢」的諧音。,我認為今次呢個project嘅主題應該要係成立獨立調查委員會， 我講完喇，我發炎鉛筆。
Fam j,2019,Famous jj的縮寫，亦可寫成famj，意指於社交平台頗有名氣的人，跟KOL意思相近。,你有冇follow呢個fam J 呀？
黨鐵,2019,"指港鐵。
2019年6月至8月22日期間港鐵封閉大約30個站次，惟《環球時報》於8月22日批評港鐵開特別班次接載示威者離開屬「偏幫示威者」後，港鐵隨即封閉過百站次，再加上721和831事件，部分市民開始稱呼港鐵為「黨鐵」。","1. 今日黨鐵有不合作運動呀！
2. 「不如去搭地鐵咯？」「不了，地鐵變咗黨鐵，我驚搭搭下有咩事發生。」"
煲底,2019,"煲底是指金鐘立法會綜合大樓地下示威區。

因為立法會會議廳建築外觀圓圓的，看起來電飯煲，所以位於其正下方的示威區被稱為煲底。",示威者都期盼著於煲底除下面罩相見的一天。
何已完,2019,何君堯議員於2019年區議會選舉中落敗，網民以同音字「何已完」來諷刺何議員。,恭喜何已完！
LMK,2019,LMK是「Let me know」的縮寫，意思是「讓我知道」。,如果你決定下星期要黎參加我既畢業禮，LMK啦。
DLLM,2019,粗口Diu Lee Lo Mo（屌你老母）的簡寫，跟「操你媽」及「幹你娘」意思一樣，字面上的意思是我跟你母親性交，實際上純粹用作罵人，或用作強調語氣，並不要真的要跟別人母親性交。,"1. DLLM 你又掛住打機唔做功課，下次再係咁唔借功課你抄！
2. DLLM 有無搞錯！咁大班暴徒係西鐵站追打市民竟然可以無警察？"
暴大,2019,指香港中文大學。,香港中文大學在Google Map曾一度被改名為「香港暴徒中文大學」，簡稱暴大。
接放學,2019,義載年輕人(特別是學生) 回家。,作為一個職業校巴司機，我的職責當然要接學生放學並安全地送他們回家。
落單,2019,本來是指光顧餐廳時，顧客向侍應表明要叫餐牌上哪幾樣食物及飲品，然後侍應會用筆或電子手帳記下柯打。這裏的意思是指只剩一個人。,要跟住大隊唔好落單呀！
EmptyR,2019,MTR的諧音，即港鐵。2019年10月5日港錢所有路線暫停服務，機場快綫、東鐵、輕鐵、港鐵巴士也不例外，網民因為稱MTR為EmptyR。,阿sir對唔住，我今日黎唔到上堂，因為MTR變左EmptyR...
condom,2019,指作替死鬼或用完即棄。,相信佢地好快就被政府當condom，用完即棄。
TG,2019,"TG是Tear Gas的縮寫，即催淚彈。
TG亦可指Telegram，一種跨平台的即時通信軟體。","1. 尋日TG大放題，短短一日已經射左1400發TG。
2. 愈黎愈多人改用TG。"
Green Object,2019,指穿綠衫的警員或穿綠衫的人。,"1. 果邊咩事咁多Green Object？
2. 哇，你今日著到成個Green Object咁既，綠衫綠褲綠鞋..."
攝衫,2019,將衫攝於褲子內。,2019年反送中示威期間，警方多次假扮成示威者混入人群之中。由於警員通常會將配槍或警棍掛在腰間並藏於衣服內，有網民於是提出全民攝衫方案，建議所有市民一起攝衫，沒有攝衫的就很大機會是警方間諜。
私了,2019,私下解決某些事情，亦可寫成「獅鳥」。,既然不能走正常程序，那就只能私了。
撕紙狗,2019,網民以「撕紙狗」或「獅子狗」來諷刺在連儂牆撕紙的人。,連儂牆火速被撕紙狗破壞。
好人一生平安,2019,經常出現於長輩圖的長輩用語。,"1. 感謝樓主大大的無私分享，好人一生平安。
2. 認同請轉發，分享是美德，好人一生平安。"
Fact Check,2019,也可寫作FC，指已經找到證據證明事件屬實。,已FC，此事千真萬確。
炒車,2019,一些人誤信謠言而發表某些言論，其後謠言被澄清，這個情況稱為「炒車」。,呢個消息仲未Fact Check，建議大家唔好跟車太貼，避免集體炒車。
錫春袋,2019,事源係之前有班黑社會打人，然後班網民話下次再係咁，就踢佢哋個春袋，然後有個手殘連登仔，將踢打錯做錫，之後有人講就算錫春袋都唔會割蓆。,我支持手足升級，呢場運動就算錫春袋都唔會割蓆！
popo,2019,popo是指警察。PO兩字取自警察的英文全寫Police Officer，80年代美國南加州有一批警察經常身穿背面印有「PO」兩個大字的制服，兩人一組巡邏，市民走在他們背後會見到POPO四字，因此警察被稱為POPO。,呢個國家既popo好親民啊！
和理非,2019,"和平、理性、非暴力的縮寫。

近年開始演變出另一個詞「和理非非」，是指和平、理性、非暴力、非粗口。",和理非及勇武派缺一不可！
銀髮族,2019,指頭髮顏色介於黑色和白色之間的人，即55歲以上的長者。,銀髮族嚮應號召，數千長者接力遊行，要令政府聽到社會各階層的聲音。
堅離地,2019,指某個人的想法不切實際，脫離事實。,呢個政府啲政策真係堅離地。
連儂牆,2019,"2014年雨傘運動期間，市民將民主普選寫在彩色memo紙上並貼在牆上，這幅貼滿memo紙的牆被稱為連儂牆。

2019年反送中示威期間，連儂牆再度出現並散佈於香港各區。",連儂牆又再出現了。
樽鹽,2019,尊嚴的楷音。,你點解要搞我呀，我只不過係想攞返樽鹽姐，我搵唔到樽鹽喇而家。
Be Water,2019,"Be water是李小龍的名言。2019年反送中示威期間，示威者以Be water互相提醒大家要像水一樣能進能退，能聚能散，除了能像洪水般洶湧而至，亦要可以像潮水般迅速撤離。

中文可寫作「如水」。",大家要be water，需要退既時候就要退，唔好死守。
自由hi,2019,「自由閪」的諧音，指追求自由的人。,"2019年反送中示威期間有警察把學生迫到商場內，在門外叫囂「出黎啦！屌你老母！自由閪！」挑釁商場內的市民。

有人說警察當時其實是在叫「豬閪」，亦有人說聽到警察叫「自由閪」。"
記你老母,2019,"2019年反送中示威期間有記者向警察表明身份指自己是記者，該警員隨即向他大喝「記你老母」。

事後警務處處長於記者會上表示他從來對傳媒是最客氣和最有禮貌的，在場記者聽罷都不禁竊笑。當被問及警員以粗言穢語喝罵記者，警務處處長稱講粗口是不對的，如果真有警員講粗口的話會回去加強訓練。該次記者會被網民戲稱為「記你老母記者會」或「記你老母會」。","1. 「我係記者啊」「記者？記你老母！」
2. 「大家今晚記得做功課啊」「記你老母！」"
送頭,2019,送頭是指故意去送死，常見於網路遊戲。,隊長，我們先撤退吧，不要再送頭了！
因航,2019,指國泰航空。據聞某份香港著名報章每逢有國泰航空負面新聞傳出，便會以「因管理不善而在全球最佳航空公司排名榜節節下跌的國泰航空」作為新聞開端，網民因此以「因航」來稱呼國泰航空。,因航又有負面新聞喇。
bfable,2019,「Boy Friend-able」的縮寫，用來形容一些適合做男朋友的男生，一般形容有魅力的男人。,新黎果個輝哥又靚仔又孝順，絕對係bfable呀！
meme,2019,meme是指一些不斷被模仿、複製再轉載的事物，一般指網路上被廣泛轉載而爆紅的事物，可以是一些搞笑圖片、影片，也可以是一些手勢。meme中文可以譯作「模因」、「迷因」或「梗」。,"1. 韓國流行的心心手勢已經成為了meme。
2. 小張製作的影片在一夜之間迅速變成了meme。
3. 這個詞竟然變了meme，還上了潮語字典！"
Catch Up,2019,Catch Up的中文是「出來聚聚」或「保持聯絡」，亦可以指「趕上進度」。,"1. 喂，咁耐無見，搵日約出黎catch up下啦。
2. 畢業後大家都好忙，每次catch up既時間好短，所以大家都好珍惜。
3. 個課程太趕，我完全catch up唔到。"
賞花杏仁露,2019,警方名言「上返行人路」的諧音。,"1. 記者朋友唔該賞花杏仁露。
2. 同學，請你立即賞花杏仁露！"
最後的童話,2019,黃子華曾說許志安與鄭秀文是最後的童話，結果許志安卻因爲出軌而令童話破滅。自此網民以「最後的童話」來暗示一段感情可能並非如想像中美滿。,小安同小心又一齊返？睇怕都係最後的童話。
安心事件,2019,"指藝人許志安與黃心穎於2019年4月的偷食事件。

2019年4月，馬國明女友黃心穎與鄭秀文太太許志安於的士內親熱的影片流出，轟動全城。當晚許志安開記者招待會解釋事件，十多萬網民於網上觀看直播。",安心事件全城轟動，仲大件事過巴黎聖母院失火。
壞左既人,2019,形容失去靈魂、迷失自我的人。,"藝人許志安被爆出軌後開記者會提到：「我唔知點去走我以後嘅路，呢一刻係冇咗靈魂，我係一個壞左既人，希望大家可以畀時間我搵番我自己，我要同所有朋友講對唔住。」

網民認為「壞左既人」這個詞彙很新穎，因而決定將其收錄於潮語字典。"
小粉紅,2019,小粉紅是指愛國的中國青年，他們活躍於網絡世界。每當網絡上出現辱華言論，他們就會出征。,近日小粉紅與泰國網民在Twitter大戰。
obj,2019,obj是object的簡寫，指某位警員或某個人。例如Green obj是指Green Object，即穿綠衫的人。Yellow obj是指Yellow Object，即穿黃衫的人。,"1. 果邊咩事咁多Object？
2. 對面有三個Yellow Object同兩個White Object行緊過黎。"
中二病,2019,形容自我中心的人，經常以為自己才是對的。這些人常急於表達自己，想表現出與眾不同。,佢有中二病架，以為全世界都要聽佢講。
666,2019,指很棒，很厲害的意思。,頭先果場你好勁呀，對面三個圍你一個都唔夠你打，666
Micro Influencer,2019,又稱Micro KOL或MI。指有一定數量忠實粉絲，但名氣不及KOL的人。,可以考慮搵Micro Influencer幫手宣傳你個新product呀。
LM,2019,即「留名」，常見於討論區。,LM等睇樓主被插。
oj,2019,即「ok」。因為經常有網民將ok錯打成oj，所以現在不少人都故意打成oj。,今日打邊爐oj嗎？
gur,2019,"服氣的意思。「唔gur」即唔服氣，條氣唔順的意思。

gur亦可以寫成「啹」。",十幾人無交功課，個個都唔鬧淨係鬧我一個，好唔gur。
chur,2019,很趕急，沒有時間透氣。亦可指某人要求另不半無時無刻陪伴在身旁，想要霸佔對方的一切。,"1. 聽日有三個project要交，好chur。
2. 已經好耐無見過小強了，佢日日被女友Chur爆。"
焗腸,2019,「局長」的楷音。,"1. 陳焗腸話會嚴肅跟進今次事故喎！
2. 焗腸講既野你都信？"
gchi,2019,gchi，亦可寫作G持，為「支持」的諧音。,"1. GCHI梁議員連任！
2. 全靠大家GCHI，本會終於成功當選，今後仍然需要大家多多GCHI。"
七日不見如隔一周,2019,"由「一日不見如隔三秋」改良而成，原句的意思為只是一日沒有見面卻好像三年沒見過一樣，比喻度日如年的心情，常用於對朋友或戀人的思念。

如此有詩意的經典名句經網友改良後，便成了廢話。「七日不見如隔一周」意思是七日沒有見面，就像一周沒見過一樣，講左等於無講。",我地去完旅行返黎喇，七日不見如隔一周，有無掛住我地啊？
6uo,2019,跟「on9」意思一樣，把6uo倒轉來看就是on9。,"「6uo點解？」
「即係你囉，on9」"
廢水,2019,「廢水」一詞起源於澳門，是指高糖份飲品，例如珍珠奶茶、水果茶等台式手搖飲品。,我一向唔太喜歡飲廢水，但呢間店既廢水真係勁好飲，高度推薦。
Sodiasm,2019,「掃地阿嬸」的諧音。,My mother is a Sodiasm in QE Hospital.
Nancy,2019,「藍絲」的諧音。,呢間餐廳老闆係Nancy。
tyft,2018,tyft是「Thank you for Tag」的簡寫意思為「感謝你tag我」，常見於社交平台。,tyft 張相好靚啊！
stone,2018,好似飲醉酒咁，個腦wing咗。,喂你頭先答阿sir問題做咩答到咁stone啊？
人頭豬,2018,TVB劇集《愛回家》中的角色大小姐經常以「人頭豬」來形容他的秘書，意思是指她雖然有著一顆人頭，看似是人但實際上是一頭豬，簡單來說就是說她像豬一樣蠢。,你唔係扮蠢架喎，你係真蠢架喎，咁簡單都唔識做，你正一人頭豬黎架！正垃圾！
法唔法國,2018,法唔法國是「發唔發覺」的諧音。,法唔法國最近少左好多遊客？
光棍節,2018,11月11日，阿里巴巴等商家發起的購物節。,大部分店舖會在光棍節瘋狂勁減，千萬不要錯過這個一年一度的好機會。
FML,2018,「Fuck My Life」的縮寫，意思是天呀，我怎麼這麼命苦。,FML，仲有十篇文未作完，今晚唔使訓luuu...
走大橋看珠西,2018,前特首梁振英先生在港珠澳大橋開通後稱會組織法師生「走大橋，看珠西」。由於「珠西」跟「豬西」的發音相近，此潮語因為被網民大量轉發而爆紅。,"1. 走大橋，看珠西，我們應多多了解中國。
2. 搵日得閒一齊去走大橋看珠西。"
係愛呀哈利,2018,電影哈利波特中的一句對白，用來形容很有愛的事。,"1. 曹總竟然follow左小麗既IG，係愛呀哈利！
2「. 真係唔明點解明叔成日都送飯俾露宿者。」「咁你都唔明？係愛呀哈利！」"
CLS,2018,"CLS是粗口Chi Lun Sin（痴撚線）的簡寫，意思是指某人的言行舉止極度不正常。

CLS亦可以是Comment、Like、Share的簡寫，常見於Youtube、Facebook等社交平台，KOL叫大家CLS即是希望大家留下訊息、讚好及分享影片。","1. CLS 拎一萬億黎倒落海？
2. 點解呢個國家既人咁鐘意周街屙屎？前面有咪有廁所囉，係都要係條街度屙。我係你屋企門口屙得唔得呀？CLS！
3. 記得CLS，Comment、Like、Share我地嘅YouTube頻道啊。
4. CLS公司俾得果幾千蚊人工仲要人日日OT.."
最佳估算,2018,「目標」的另類說法，網民藉此諷刺林鄭。,"1. 高鐵平均每日客量八萬是最佳估算，而非目標。
2. 考試100分是最佳估算，而非目標。"
leung leung,2018,「娘娘」的英文譯音。,"1. 臣子參見leung leung！
2. 最近leung leung收左唔少兵喎。"
打毒針,2018,來自TVB劇集《我們的天空》末段「本是同根生，何必打毒針」對白，意思是在別人背後說三道四、以虛構的事實歸責他人，志圖貶低他人對其觀感。,小明為使別人疏遠阿輝，向阿輝的朋友打毒針。
望君嘗糞,2018,其實即係食屎啦你既另外一個講法。,你真係無藥可救，望君嘗糞啦你！
毛粉,2018,毛粉在香港和內地有兩種不同的意思。在香港，毛粉是指毛記的粉絲。在內地，毛粉是指毛澤東的粉絲。,"1. 毛記憑著一眾毛毛的努力終於成功上市，身為毛粉既我為佢地感到高興。
2. 我個仔去完內地留學之後變左毛粉，成日話爹親娘親不及毛主席親..."
跳高女神,2018,指香港跳高運動員楊文蔚Cecilia，2016年起成為香港跳高女子紀錄保持者，因為比賽成積優秀且樣子甜美而被網民稱為跳高女神。,恭喜跳高女神再度破紀錄！
神奇小子,2018,"指香港桌球一哥傅家俊，當年憑藉身為第一華人於英國的職業賽事取得佳績而被稱神奇小子。

近年香港拳手曹星如Rex亦被稱為「神奇小子」，職業生涯至今保持不敗，至2017年已錄得22連勝，因其輝煌戰積而被網民稱為神奇小子。","1. 神奇小子傅家俊近期因為視網膜退化，退出多項賽事。
2. 下星期神奇小子有拳賽，一齊去支持佢！"
佛系,2018,佛系就即係唔爭仔唔爭女、唔爭名遂利同唔打扮，信緣分啲嘢就到手,小芝係一個佛系女仔，乜都唔做，唔識化妝，信緣分等男人到手
是咁的,2018,意思跟「是這樣的」一樣，通常用作開場。,"1. 是咁的，今天我脫離單身了！
2. 是咁的，我覺得你唱歌唱得幾好聽，不過有少少太大聲，呢度始終係辦公室..."
專家Dickson,2018,專家Dickson是毛記旗下的一名藝員。,專家Dickson先生於毛記葵涌上市當天為公司敲鑼、發言、接受財經記者訪問，風頭甚至蓋過即將開show的東方昇及腦細林日曦。
雜誌仔,2018,"指雜誌《100毛》。蔣麗芸議員與林日曦拍攝電視節目《跟住矛盾去旅行》時說過「你嗰本咁嘅雜誌仔就釘啦！睇佢捱到幾耐，威到咁喎真係！」。

2018年毛記上市首天市值逾20億，而蔣麗芸家族創辦的震雄集團市值只有14億。自此網民以「雜誌仔」來諷刺蔣麗芸議員狗眼看人低。","1. 你盤生意連雜誌仔都不如喎...
2. 陣間順便幫我買本雜誌仔丫唔該！"
大台,2018,指TVB。TVB是香港電視台中的龍頭，因此被稱為大台。,呢段新聞咁戲劇化既，似足大台電視劇既劇情。
推友,2018,指推特（Twitter）用户。,他因為推友的一句說話而決定離家出走。
黑人問號,2018,指網上流傳的一張的照片，照片中黑人露出莫名其妙的表情，旁邊有幾個問號。,完全唔明呢段片講咩，睇完我真係黑人問號。
宇宙最強,2018,指武打巨星甄子丹先生。,宇宙最強又有新戲喇，一定要睇！
P圖,2018,P是修圖軟件Photoshop的縮寫，P圖就是指用修圖軟件來為相片作後期加工，使用任何修圖軟件作後期加工也可以稱為P圖。,"1. 又到左一年一度的P圖大賽，冠軍可獲10元豐厚獎金！
2. 嘉莉張相P圖P到個樣完全唔同哂..."
BFF,2018,BFF是「Best Friends Forever」的縮寫，即「友誼永固」。,去到加拿大要記得我啊，BFF！
栗米六粒飯,2018,「栗米肉粒飯」的諧音。也可以用來形容物價高漲，餐廳食物的份量一日比一日少，昔日的栗米肉粒飯只剩下栗米六粒（或六粒飯）。,"1. 物價愈來愈貴，粟米六粒飯的日子不遠了。
2. 到底栗米六粒飯係六粒栗米定六粒飯？"
好緊火,2018,「好緊火」是指有急切性的生理需要。,好緊火，點算好？
塞車因為車多,2018,前立法會議員鄧家彪在Facebook發帖稱「上水大塞車是因為車多關係」，不少網民認為這句話是廢話。自此網民開始以「塞車因為車多」這句話來諷刺鄧先生。,"上水今日咩事咁塞車？
塞車因為車多丫嘛。"
喵星人,2018,貓的另類叫法。,屋企隻喵星人淨係識食同訓。
失意體前屈,2018,指「Orz」，這個符號看起來像一個失意的人低頭跪倒在地上，表示失意的意思。,佢輸左比賽之後即刻擺出左「失意體前屈」既姿勢，應該好失落。
Cal9lation,2018,在Calculation(算數)中插入9字，即「算鳩數」。,佢似Taylor Swift？Cal9lation啦
Latergram,2018,常見於Instagram的hashtag。在Instagram貼文中加上#latergram hashtag是指這張照片不是今天拍的，而是早幾天拍的，只不過到現在才分享。,上星期拍的照片 #latergram
尖啤,2018,「Dream Bear」的諧音，指劉夢熊先生。,"1. 我頭先響維園見到尖啤呀！
2. 最近尖啤好似低調左。"
0748,2018,國語「你去死吧」諧音。,打我？0748
好kam,2017,好kam有兩個意思，可以用來形容一個人很奇怪，亦可以指一件事很尷尬。,"1. 果個人咁kam既。
2. 頭先唔小心拖錯左第二個男人，真係好kam.."
懷疑人生,2017,「懷疑人生」是指因遇到重大打擊或認為事情發展不符合常理，令人生觀產生巨大改變。,"1. 暑假咁就完左，下星期就要返學了，真係懷疑人生...
2. 呢間店既魚生真係好食到懷疑人生呀！
3. 生仔真係痛到懷疑人生...
4. 今個夏天真係熱到懷疑人生呀！"
Fat fat la,2017,「發發啦」的諧音，意思是「發達啦」。,咁都俾你抽中左部iPhone，You fat fat la!
邊間教會,2017,不少傳統詩歌的歌詞都唔岩音，所以網民以「邊間教會」諷刺一些唔岩音的歌詞。,歌詞都唔岩音既，個填詞人係邊間教會架？
Earth Vely Danger,2017,專家Dickson主唱的歌曲，歌詞極具本地風格，推出一天已登上iTunes榜首及KKBox歐美流行榜第4位。,陣間去唱K唔知有無得唱Earth vely danger呢？
素人,2017,素人是指沒有經驗的外行人。政治素人則指從來沒有參選過立法會或區議會的新人。,今屆區議會選舉多左好多政治素人。
游生,2017,游生是TVB藝人袁文杰於劇集「不懂撒嬌的女人」中的角色名字。由於袁文杰於劇集中的角色深入民心，大家都習慣了以游生來稱呼他。,今晚個節目游生做主持喎！
火車頭,2017,指一邊走一邊吸煙的人士。,呢個火車頭好煩呀，跟住佢尾真係索晒啲煙……
網紅,2017,「網絡紅人」的簡稱。,Ming仔是近年人數高企的網紅之一。
IT9,2017,即「IT狗」。IT人以此自嘲，暗指IT職位不受尊重，加班情況嚴重，做到隻狗咁。,「IT狗」此詞出自雜誌《數學與科技》裡面的一句對白「IT狗，你的資訊真的很有用」。
fol,2017,fol為「follow」的簡寫，有追蹤的意思，一般指社交平台的「追蹤」功能。,"1. 如果我開IG有幾多人會fol我？
2. 好開心，女神竟然fol我！
3. 麻煩大家請fol我，我會fol返大家。
4. 尋日鬧完交之後佢竟然unfol左我 T_T"
壞過凱婷,2017,潮語「壞過凱婷」起源於自一篇網絡潮文，文中內容主要是一位中學生指責另一位同學不算壞學生，其中一個原因是她無法連續吸食兩根煙，發文者更自信地指出自己跟「凱婷」才是全班最壞的學生。網民自此以「壞過凱婷」來指責別人很壞或諷刺別人扮壞。,"1. 你點夠我同凱婷壞呀？你可以連續食兩支煙咩？
2. 我試過連續食3支煙，我係唔係壞過凱婷？
3. 得喇得喇，知你壞喇，壞過凱婷喇...
4. 有無搞錯呀，放假都做公司野，做壞規矩，你真係壞過凱婷呀！"
KOL,2017,關鍵意見領袖 Key Opinion Leader 的縮寫，簡單來說就是網絡紅人。,最近唔少品牌都請KOL做代言人。
圍爐打飛機,2017,成班人圍埋一齊活在自己的世界裡自high，但實情人地覺得呢班人好on9,部份FB grp入面D友仔成日玩小圈子圍爐打飛機，做埋D on9野知唔知自己柒架
好雷,2017,形容一個人打機很廢，拖累隊友。,乜你打機咁廢架，好雷呀你。
跳哂掣,2017,形容一個人很生氣。,今日無啦啦俾老闆小，勁嬲，嬲到跳哂掣！
gfable,2017,「Girl Friend-able」的縮寫，用來形容一些適合做女朋友的女生，一般指有仙氣、漂亮的女生。,公司黎左位gfable既女同事，機會黎喇，飛雲！
OP,2017,「Over Power」的縮寫，意思是指某人太強了。,你咁樣鬧老師好OP。
釣人食飯,2017,藝人吳業坤誤把「約人食飯」打成「釣人食飯」，從此「釣人食飯」便成了潮語。,"1. 今日咁得閒，等我釣人食飯先。
2. 有無人想釣我食飯？"
極不無聊,2017,立法會議員張華峰於2017年6月7日，在反對議案時表示此議案為「極不無聊」。其後，毛孟靜議員便解釋「極不無聊」的意思為「極有意義」。,梁振英特首在喚起民眾對民主的重要性上可謂有極不無聊的作用。
天臨君下,2017,立法會議員張華峰於6月7號就689 UGL事件想說「君臨天下」，但錯讀成「天臨君下」。,黃生明明係一間蚊型舖頭嘅經理仔，但佢架勢十足，當正自己管理過百員工咁以為自己好把炮咁，真係好天臨君下啊！
帽事既,2017,發音跟「無事既」相近，表面上是指沒有事情發生，不過「帽」字含有戴綠帽的事，暗指你可能戴綠帽了，即你的另一半出軌了。,"小明：「唉，唔知點解最近每次約女友出街，佢都話唔得閒...」
小強：「帽事既」"
Tree根二世,2017,立法會議員張華峰喺6月7號嘅UGL事件彈劾689，佢讀稿時就好似民建聯前議員鍾樹根上左佢身，照稿讀撰文就讀「選文」。,今日張華峰成個Tree 根二世上身講錯嘢，講完「選文」之後仲「天臨君下」。
hihi,2017,指「仆街」。,高登論壇的粗口過濾器會自動把「仆街」過濾成「hihi」。
covfefe,2017,由美國總統侵侵發明的新字，跟coverage意思相同。想打coverage但手指不夠長的時侯就會打成「covfefe」。,美國總統侵侵於2017年5月13日在twitter發了這條推文：「Despite the constant negative press covfefe」。侵侵這條推文引發全球熱議，因為無論在字典上還是網絡上都找不到「covfefe」的意思。
阿明,2017,黎明於NESCAFÉ廣告中的角色名字。,係阿明同腦細既新廣告呀！
課長,2017,形容經常課金的玩家。,哇，你升得咁快既，你係課長黎架？
避閃,2017,因「放閃」一詞而來，意指不去看任何羡煞旁人的相片。,情人節唔好上IG啦！準備避閃啦！
精神,2017,潮語「精神」用作表達開心及興奮的心情。,從事倫敦金的人士每當完成一單生意就會在社交平台留言「精神！爆數！」，「精神」一詞自此成為潮語。
HJ2Q,2017,用手連續進行了兩次自瀆。,一位家長誤發訊息「HJ2Q」到一個家長whatsapp群組，被其他家長cap圖放上網。
PTBF,2017,「Part Time boyfriend」的簡寫，即出租男友。PTBF將自己出租給客人，與客人成為短暫的情侶。,唉，咁快就過年，又要聽班親戚問長問短，我考慮緊搵返個PTBF應付班親戚...
PTGF,2017,「Part Time Girlfriend」的簡寫，又名出租女友。這些女孩將自己出租給客人，陪客人行街、拖手、睇戲、食飯。,"最近社會對ptgf的需求愈黎愈大，竟然係jobsdb都見到ptgf既廣告 -_-"""
沒有之一,2017,「最」的意思。,"1. 北韓是世界上最幸福的國家，沒有之一。
2. 一風堂是灣仔最美味的日本拉麵，沒有之一。"
邊度女平,2017,意指邊度平D，與囡囡無關。,有無d停車場係免費或者女平架?
生快,2017,「生日快樂」的簡寫。,生快！今年也要健健康康啊！
777,2017,777，又名「柒柒柒」，指香港特首林鄭月娥 (註：林鄭月娥以777票當選第五屆行政長官)。,"1. 反對小圈子選舉！777下台！
2. 當年689無7用，今次777終於拎返幾個7。"
放閃,2017,情侶於公開場合中展現甜密舉動，羡煞旁人。,"1. 曾俊華在情人節當天於Facebook放閃，對曾太說「今天我們不談一國兩制只談一生一世」。
2. 情人節都係唔好上Facebook喇，個個係度放閃 :'("
文生,2017,文生由於經常在蘋果日報Facebook專頁留言，引起網民注意，因而成為網絡紅人。,"1. 又係你呀文生？
2. 文生，全部都係文生..."
林月鄭娥,2017,解林鄭月娥。自從林鄭月娥施捨500元予乞丐後，排頭村的乞丐數目就一直上升，有居民把「林鄭月娥」的名字唸成「林月鄭娥」，指「林月鄭娥累街坊」。,林月鄭娥施捨500元予乞丐，真離地！
講還講唔好貼圖,2017,指某人的外表不堪入目。,"小葉：你睇下我d腳毛幾性感！
小林：講還講唔好貼圖..."
馬國明放假一天,2017,有報章以「大馬羽球賽李宗偉奪冠，馬國明放假一天」作標題。原指馬來西亞明天放假一天，但被不少網民看成「馬國明」放假一天。自此，每當李宗偉有機會奪冠時，網民就會笑指馬國明又可以放假。,李宗偉好大機會奪冠，馬國明又可以放假一天了 XD
上帝叫我,2017,林鄭月娥宣佈參選行政長官時宣稱「上帝叫我參選」。,我都唔想頂你份糧嫁，係上帝叫我咁做咋！
奶媽,2017,指林鄭月娥。,林鄭多次為梁振英化解政治危機，因此被網民稱為奶媽。
Don't Vote for Lam Rice,2017,"指豆腐火腩飯。網民認為曾俊華落區到屋邨吃豆腐火腩飯，是想表現親民的一面，希望選委不要將票投給林鄭，因此豆腐火腩飯被稱為「Don't Vote For Lam Rice」。

「豆腐火腩飯」的讀音亦與「Don't Vote For Lam Rice」相近。",由即日起至特首選戰結束，本餐廳的招牌菜「Don't Vote For Lam Rice」將有5折優惠。我們沒有票，只能以這樣的方式表達意見，希望各位選委能夠將我們小市民的聲音帶入票箱。
男人的浪漫,2017,指豆腐火腩飯。,「男人的浪漫，豆腐火腩飯」出自一篇高登潮文。
Show Me Your Love Rice,2017,指栗米肉粒飯。,一名日本人在茶餐廳點菜時，把栗米肉粒飯誤聽成Show me your love rice。
服兵役,2017,指心甘情願當娘娘的觀音兵。,佢已經服左兵役5年了，好佩服佢既毅力。
吹屎眼,2016,澳門特首崔世安2009年宣誓時以不純正的普通話讀出自己名字時被網民誤聽為「吹屎眼」。,有冇睇youtube段片啊，吹屎眼又有世界級嘅普通話表演。
吹水安,2016,澳門特首崔世安名字的諧音。,吹水安發表施政報告咪又係到照讀稿。
過大海,2016,香港人去澳門需要搭船，因此會稱去澳門為「過大海」。,聽日過大海玩吓先！
馬交,2016,澳門Macau的諧音。,今個禮拜六去馬交放鬆吓先。
笨撚,2016,澳門特首崔世安2009年宣誓時以不純正的普通話讀出「本人」時被網民誤聽為「笨撚」。,請你不要質疑笨撚的辦事能力。
Ga Yau,2016,「加油」的英文譯音。,"1. Ga Yau! 聽日場比賽你一定可以贏！
2. 香港人Ga Yau！"
女版689,2016,"指葉劉淑儀。葉劉淑儀的行事作風與689相近，而她亦想參選特首，因而被稱為女友689。

葉劉淑儀一直以來都大力推銷23條，因此亦被網民稱為「666 + 23」或「23條惡魔」。",雖然689宣佈左唔參選下屆特首，不過唔好忘記仲有個女版689，大家唔好掉以輕心，12月11日一定要出黎投票，一齊踢走689！
張學友.jpg,2016,指「食屎啦你」。,「食屎啦你」是張學友於電影「旺角卡門」中的一句對白，出現該對白的電影截圖經常被網民廣傳。
燒山,2016,指蕭生（蕭若元先生）。蕭生於時事專欄「最新蕭析」數次錯估形勢，被網民稱為「燈神」。,689宣佈放棄連任，我最想多謝既係燈神燒山，全靠佢話689有機會入閘！
R.IP,2016,葉劉淑儀議員英文名Regina Ip的英文縮寫。,希望下屆特首千祈唔好由R.IP做，佢將會係另一個689。
ABC,2016,「Anyone But CY」的縮寫，意思是指任何人當選特首都好，只要不是CY就行。原因是外界普遍認為CY是歷來表現最差的特首，經常以語言偽術誤導市民，不斷分化社會，相信沒有人會比CY更差。,"記者：「你最希望下屆特首由誰出任？」
小明：「ABC」"
掌心雷,2016,掌心雷是指老人家於立法會或區議會投票時手持一張印有侯選人名字及號碼的卡片，主要是因為老人家記性不好，讓他們投票的人怕他們記不住投票對象的姓名。,不少老人家於投票前都會獲發掌心雷。
蟲Can,2016,指浸會大學裡的其中一間canteen，因為食物中不時有昆蟲夾雜其中而被稱為「蟲Can」。,"小明：「陣間去前面果間canteen食lunch好唔好？」
小強：「又食蟲Can？」"
侵侵,2016,"網民為美國總統Donald Trump改的花名。
註：「Trump」的發音與「侵」相近。",一直被看淡的侵侵竟然當選了，好多人都跌晒眼鏡...
當奴侵,2016,美國總統Donald Trump的中文譯名。,唔係呀嘛，當奴侵真係赢左...
DQ,2016,DQ為「Disqualify」的縮寫，意思是被取消資格。,希望佢唔好被DQ啦...
1999,2016,說話不清晰，詞不達意，講野一舊舊。,好心你講嘢唔好1999。
Hangry,2016,Hangry是Hungry與Angry的混合字，表達又餓又嬲的情緒。,無啦啦要我OT到10點，飯都未食呀，真係Hangry！
梁38,2016,梁君彥議員於2016年立法會主席投票中取得38票，因而被網民稱為「梁38」。,"黎緊四年要成日對住梁38...
好掛住曾鈺成呀！"
議政時差,2016,於2016年立法會新界東(有線電視)論壇中，工黨張超雄問新民黨參選人容海恩是否支持興建特殊學校，容表示支持。之後，張質問容，為什麼在區議會內，新民黨的區議員會反對興建等特殊學校，但容為何在立法會選舉表示支持。之後，容小姐說，新民黨意見有出入，區議會同立法會有議政時差。,"甲：點解某黨係區議會反對，但係立法會又支持？
乙：哦，呢D咪叫議政時差囉！"
PPAP,2016,"PPAP是紅遍全球的網絡神曲，全曲只有幾句歌詞。

歌詞：
I have a pen. I have an apple. Uhh! Apple pen.
I have a pen. I have pineapple. Uhh! Pineapple pen.
Apple pen, pineapple pen… Uhh! Pen-pineapple-apple-pen. Pen-pineapple-apple-pen.","小明：「Side Angle Side ♪♪♪ Side Side Side ♪♪♪」
小強：「仲唱SAS咁Out？而家梗係唱PPAP啦！I have a pen ♪♪♪ I have an apple ♪♪♪」"
Three C Meeting,2016,"中文名稱為「三司會議」，指由政務司司長、財政司司長及律政司司長每周舉行一次的恆常會議。

此潮語由香港特首梁振英先生發明。",我地洗唔洗好似特首咁搞返個Three C Meeting？
應機,2016,於Whatsapp、Line等即時通訊軟件回應別人的訊息。,叫你唔應機？
薯片叔叔,2016,財政司司長曾俊華因為貌似品客薯片的品牌標誌，被網民稱為薯片叔叔（或品客叔叔）。,到底薯片叔叔會唔會選特首呢？
劍弩拔張,2016,成語「劍拔弩張」的另類寫法，形容局勢緊張，戰事一觸即發。此另類寫法出自張國鈞議員，張議員亦因此被譽為Tree Gun接班人。,689刻意分化社會，挑起事端，令市民與慈母劍弩拔張。
雞，全部都係雞,2016,"1. 形容所有菜式都是以雞為主。
2. 形容所有女性都是妓女。",高登網民為名曲「夢中的婚禮」配上歌詞，改編歌曲名為「雞，全部都係雞」。雖然整首歌曲只有「雞，全部都係雞」一句歌詞，但卻非常洗腦，結果一夜爆紅。
左膠,2016,即不現實左翼分子，他們思想和行為膠化，故此得名。如盲目鼓吹包容大陸人；視社運為生意而不敢在抗爭手法上有所突破，甚至騎劫集會、篤勇武抗爭者的灰。,多得左膠，香港既社運咁多年黎都爭取唔到啲咩成果！
鄺體,2016,指民主黨議員兼作家鄺俊宇獨有的寫作風格，其特色之一為濫用逗號。,我學會了，用，鄺體寫作了，我的作品，將來，肯定大賣！
Goodest,2016,"「Best」的另類寫法，指「最好」的意思。

可以用「Goodest English」來諷刺某人的英文水平差。",呢間強國餐廳竟然將「干爆鴨子」翻譯成「Fuck the Duck Until Exploded」，真係Goodest English。
I am the King,2016,指「我就是王」。,"記者訪問中國泳手孫楊時問到對方會否在1500米的賽事中擊敗對手賀頓，孫楊以「1500 metres, I am the king, I am the new world.」作回應。"
洪荒之力,2016,天地初開之時，曾經出現過一場滔天大洪水，洪水淹沒整個大地，幾乎滅絕人類。「洪荒之力」就是指這種足以毀滅世界的最強力量。,記者訪問中國泳手傅園慧時問到她是否有保留實力，傅園慧搖頭指已經用了「洪荒之力」。
心入面條蟲,2016,"2014年10月「七警事件」其間，TVB報道該事新聞的「拳打腳踢」一詞被刪走。網上流傳一段錄音，疑似是無綫新聞及資訊部總監袁志偉因使用「拳打腳踢」一詞而斥責TVB新聞工作者，還質疑下屬是否涉事警員「心入面條蟲」。

「心入面條蟲」指一個人對另一個人很熟悉到能了解其想法，猶如一名解析想法的人。",阿Mark和阿Alice的關係那麼密切，連她的欲望，Mark也知道。莫非阿Mark係阿Alice的心日「入面條蟲」?
口裡說不，身體卻很誠實,2016,指一些人的言語和的行為有矛盾。,內地人說討厭日本侵佔釣魚台島，但卻經常到日本旅遊，真是「口裡說不，身體卻很誠實」。
UM9,2016,"「噏乜鳩」的諧音。
當聽不懂對方的說話時，暗示對方再說清楚一點。","A: 溫馨提示：聽日八號
B: UM9?
A: 聽日掛八號風球"
離地,2016,泛指一些人的想法或行為，尤其為官二代或太子黨的兒子，是脫離普羅大眾，不吃人間煙火，不知民間的疾苦，就如他們雙腳離地，在太空中一樣。,他的父親是高官來的，生活也是豪華，他們那麼離地，有關心到基層市民便奇怪了。
Chill,2016,Chill是指慵懶隨意、悠閒或舒適自在，跟Hea意思相近。,我們這次的旅程很chill。
核心外圍,2016,"出自黎明金句「核心嘅外圍係核心嘅內圍」。

2016年黎明於中環海濱活動空間舉行演唱會，大會選用的中國帳篷不符消防安全規定被迫拆掉，黎明多次為事件向公眾道歉，其勇於承擔、不推卸責任的態度，跟政府官員形成強裂對比，深得市民欣賞。

拆掉帳篷後，場外亦能清楚聽到黎明的歌聲，大批市民專程到場外欣賞黎明演出，場外亦因而有「核心外圍」之稱。尾場演唱會當晚更有數千人聚集於場外，核心外圍比核心內圍更熱鬧。",今晚要唔要一齊去核心外圍聽演唱會？
我覺得自己是零,2016,宅男阿源的金句，意思是覺得自己一無是處。,點解得我一個搵唔到工？我覺得自己是零...
波撚,2016,波撚是指熱愛玩波的人。熱愛籃球的人可稱作籃波撚或籃球撚，熱愛足球的人也可稱作足波撚或足球撚。,"1. 條友日日打波，一定係波撚。
2. 每逢一到小息時間就有好多籃波撚衝落籃球場霸場。"
寶寶心裡苦，但寶寶不說,2016,中國藝人王寶強於節目「奔跑吧！兄弟」中說了一句「嚇死寶寶了」，然後網絡上就開始陸續出現各式各樣的「寶寶」系列潮語。其中較為人熟悉的有「寶寶難過，但寶寶不說」、「寶寶心裡苦，但寶寶不說」等。,"1. 寶寶心裡苦，但寶寶不說。
2. 寶寶生病了，但寶寶不說，然後寶寶就死了。"
好重要所以要講三次,2016,為了讓對方記住重要的事，將說話重覆講三次。,聽朝記得投票，聽朝記得投票，聽朝記得投票，好重要所以要講三次。
SAS,2016,"由循道中學3名中學生演繹的三角形「洗腦歌」，歌曲不斷重複「SAS，SSS，ASA，AAS」四句歌詞，短片上載不足一天已得到逾70萬網民觀看。

SAS是繼「亞視永恆」之後另一首紅爆全港的歌曲。

短片連結：http://fb.com/methodistcollege.secrets/videos/821627624638041/","我竟然聽哂成首SAS -_-"""
ldm,2016,港式英語「Laugh Die Me」的簡寫，「笑死我」的意思。,尋晚套新劇好好笑 LDM
特事特辦,2016,"以特殊的方式處理特殊的事。

梁特首要求機場職員將行李交給禁區內的女兒，雖然特首稱此事並無「特事特辦」，但其後有多名記者及市民嘗試以同樣方式處理行李，均被職員拒絕。似乎只有特首才能此方法將行李送入禁區，因為有網民認為「特事」亦可解作「特首事」。",我地又唔係姓梁，邊有得特事特辦架？
悔辱,2016,源於鍾樹根將「侮辱」一詞錯講成「悔辱」。詞思與「侮辱」一樣，指做一些東西令到他人名譽受損。,他竟然出言悔辱我，我只好與他割蓆絕交。
李早,2016,網民為李國章改的花名。,2016年康文署要求劇團在場刊刪除「國立臺北藝術大學」中的「國立」兩字。因此網民將「李國章」中的國立刪除，變成「李早」，藉以諷刺事件。
清泉,2016,清泉是指純品、清純、未被污染的人，可以指男生亦可以指女生。,"1. 佢絕對可以話係KOL界既清泉！
2. 我公司有好多清泉。"
明張目膽,2016,源於鍾樹根將「明目張膽」錯講成「明張目膽」。詞思和成語「明目張膽」相同，即公開放肆地做某一樣東西。,班長竟然明張目膽咁作弊，簡直當老師無到。
老司機,2016,「老司機」是指在某些方面資歷老到、經驗豐富、見識廣博的人。,"1. 係電競方面佢絕對係老司機，佢認第二無人咁認第一。
2. 你真係老司機，小弟甘拜下風。"
因龍航空,2016,指國泰港龍航空，被因航收購後得名。,做咩咁睇唔開搭因龍航空呀？
因快航空,2016,指香港快運航空，被因航收購後得名。,做咩咁睇唔開搭因快航空呀？
jm9,2016,「做乜鳩」的諧音。,都唔知政府係度jm9，而家全世界都高價買口罩，佢竟然係度出tender價低者得，咁買法梗係買唔到啦...
管理員,2016,只一些自稱是管理員，但沒有任何管理員證件，只穿著一件印有「管理員」三字的外套的人。,屯門良景村班管理員都唔知咩人黎既，唔單止成日趕小販，仲大膽到係慈母面前圍毆市民同記者。
夜喇,2016,下一句是「瞓啦柒頭」，叫對方不要再做愚蠢的事。,"小明：「我要賺錢，做下一個李嘉誠！」
小志：「夜喇。」"
隊bu池,2016,「對不起」的國語讀音。,隊bu池囉，下次唔敢囉。
關公災難,2016,家陣D人興將「公關災難」調轉講成「關公災難」，兩個詞語意思一樣。,點解政府部門而家搞出咁多關公災難架，究竟政府有冇公關處理對外事務架。
我見過！我真係見過！,2016,強調見過一些自認為很了不起的事，但在別人眼中只是雞毛鴨蒜的小事。,創科局局長楊偉雄於創科論壇中說到「有邊個見過Steve Jobs？未呀？我見過！我真係見過！」。其後大批網民以「我見過！我真係見過！」造句，藉以諷刺楊局長。
真,2016,"將「真」字加在名詞前面，有「真正」的意思。
例如「真．何韻詩」代表真正的何韻詩本人，而不是假扮的。",聽聞今晚既六點半左右新聞報道會有真．王宗堯啊！
偽毒,2016,又稱「偽毒男」，指那些明明不是毒男卻又自稱毒男的人。,坤哥明明一d都唔毒，但就成日扮毒男溝女，唔怪得咁多人話佢係偽毒。
亞視永恆,2016,"於毛記電視勁曲金曲上榜超過30星期，並奪得第一屆十大勁曲金曲第一位的名曲，由真‧河國榮主唱。

其歌詞「亞視會永遠都存在」深入民心、家傳户曉。",不如去唱K囉？突然好想唱返首亞視永恆。
有請小鳳姐,2016,表示有值得高興的事發生，要唱「喜氣洋洋」慶祝。,Yeah！樹根連任失敗，有請小鳳姐！
G,2016,「知」的諧音。,"小記：「你知唔知『洗版』係咩意思？」
小英：「G！」"
仙氣,2016,形容美得超凡脫俗，像仙女般有氣質的女生。,盤菜瑩子有一種好特別既氣質，簡直係我既仙氣女神！
Barcode勤‬,2016,香港歌手李克勤的花名。,2015年李克勤將一張行李喼的相片上載到Facebook，投訴航空公司把他的行李寄失了。相片中李克勤的行李喼上貼滿航空公司用來記錄行李的barcode，網民紛紛留言指責他，指他的行李喼上貼滿barcode，容易令機場行李系統掃描出錯，亦對機場職員構成麻煩。李克勤因為這次事件而被稱為「Barcode勤‬」。

剩女,2015,指已經過了適婚年齡，卻仍然未結婚的女性。,"1. 我今年既生日願望係要盡快脫離剩女行列。
2. 阿女你幾時先肯結婚呀？成四十歲人仲單身，你唔係想成世做剩女丫嘛？"
Burn Sell,2015,「燒賣」的英文寫法。,"小明：「約左坤哥陣間去食好西，不過未諗到食咩好，有無好提議？」
小強：「不如去食坤哥至愛既burn sell啦！」"
老老竇竇,2015,「老老實實」的另類寫法。,老老竇竇你究竟收埋幾多錢！
龍蝦,2015,指特首梁振英夫人唐青儀。,唐青儀於2014年出席一個公開活動時以一身鮮紅造型示人，看似一隻龍蝦。
內容農場,2015,內容農場(Content Farm)是指以大量誇張標題、翻譯文章、失實內容、沒有參考價值的文章取得大量流量而賺取廣告費的網站。,小明睇內容農場唔緊要，但佢次次睇完之後都要share埋出黎，真係好想unfollow佢...
c6,2015,"指丈夫。
註：c6是「死佬」的諧音。",我想俾仔仔去補習班，不過我c6話唔洗，佢話仔仔似爸爸一樣咁聰明唔洗補習喎，俾佢激死！
唔得掂,2015,網民為吳克儉局長改的花名。亦可以寫成「吳得掂」。,唔得掂話佢一個月睇三十本書。原來佢份工咁得閒，可以有咁多時間睇書...
照騙,2015,經Photoshop、美圖秀秀等軟件美化過的照片。,呢個女仔既Facebook Album裡面果d全部都係照騙，相裡面個樣同真人完全唔同架。
CNMD,2015,「操你媽的」的英文縮寫。,CNMD，明明球技咁差但又咁執着，係都要阻住我哋出線打世界盃！
濕平,2015,「Shopping」的諧音。,"1. 終於等到星期五喇，陣間放左學一唔一齊去濕平？
2. 唔好意思呀，我聽日要陪太太去銅鑼灣濕平，同唔到你地去行山喇。"
輸根,2015,鐘樹根議員的最新花名。,已擔任區議員21年的鐘樹根議員於2015年11月22日的區議會選舉中落敗，翌日大批市民到其辦公室慶祝其落選，有網民賜與他新的稱號「輸根」。
不要放棄治療,2015,暗示一個人有精神病。,"小明：「我決定以後都要著泳衣返學！」
小強：「請不要放棄治療...」"
菲律賓博士,2015,指一些懷疑以不正當方式於短時間內極速取得博士學位的人。,"嶺南大學副校長夏迪星於2013年在菲律賓太歷國立大學取得博士學位，他的畢業論文被發現與一份出自瑞典隆德大學的碩士論文非常相似，涉嫌抄襲。

事件發生後，有傳媒開始進行調查，懷疑有學校為客人偽造文件，令他們可以極速畢業。其後，不少社會知名人士陸續被發現曾經於短時間內極速取得博士學位，而他們的博士學位大多來自菲律賓大學。"
Eric Chan,2015,指Facebook Page管理員。,"2015年8月10日，立法會議員葉劉淑儀的Facebook專頁登出一張葉劉的大腸內窺鏡檢查照片，照片上印有葉劉的身份證號碼，事件引起公眾關注，市民認為葉劉淑儀身為前保安局局長不應該如此疏忽。

其後，葉劉淑儀Facebook Page管理員Eric Chan登出一篇道歉啟事，承擔所有責任。網民認為葉劉在這件事件亦有一定責任，不應該將所有責任推卸在Eric Chan身上，大家都對Eric Chan表示同情。"
chirs,2015,指鐘樹根博士。,鐘樹根博士語文水平一向不高，多次在議會中讀錯成語，例如把「雞毛蒜皮」說成「雞毛鴨蒜」，把「子虛烏有」說成「子烏虛有」，把「明目張膽」說成「明張目膽」。最令人驚訝的是鐘博士竟然連自己的名字都寫錯，他在區議會選舉的宣傳單張把自己的名字「Chris」錯寫成「Chirs」。
有時真係忍唔住笑,2015,"梁國雄議員在2015年勞動節酒會向行政長官梁振英示威請願，為市民爭取全民普選及全民退休保障後被遂離場。梁國雄被逐離場後，梁振英冷笑兩聲後說：「有時真係忍唔住笑」。有市民認為梁振英太過份，指出梁振英在2012年參選特首時曾向市民承諾推行全民退保，現在卻把全民退保當成笑話。

這件事件發生後，每當梁振英或他的家人做錯事出醜時，就會有大批網民在社交網站留下「有時真係忍唔住笑」這句話，藉以諷刺梁振英。",哇，梁振英個女當住咁多記者面前摑左阿媽兩巴。有時真係忍唔住笑！
心心眼,2015,看到喜歡的東西後出現雙眼變成心型的表情符號。,"1. 今集Running Man有我女神呀 (心心眼)
2. 這間時裝店的服裝全部都很時尚，絕對可以令每一位女生心心眼。"
666666,2015,起源於大陸，「溜」的諧音。指某人很厲害，與「屈機」及「OP」意思相近。,嘩！佢一個打到十個666666！
鉛水,2015,含鉛量超標的食水。,2015年香港多個屋苑的食水被驗出含鉛量超標，引起各界關注，事件被稱為「鉛水風波」。
滾動,2015,感動的意思。,"1. 讀左兩年中一、兩年中二、三年中三、三年中四、兩年中五，我終於中學畢業了，好滾動 T_T
2. 女神約我出街呀，巧滾動！！"
暴力市民,2015,與「Policeman」的普通話發音近似。,你睇下！前面個暴力市民打市民呀！
司法覆核,2015,"特首梁振英稱司法覆核令青馬大橋替代路延遲施工，市民認為這是藉口，施工延遲的真正原因是因為政府施政失敗，如果政府政策正確的話根本就不需要提出司法覆核。

繼「等埋發叔」及「睇國旗」後，「司法覆核」成為最新的推卸責任藉口。","小美:「小明你又欠交功課！」
小明:「唔好意思呀老師，司法覆核搞到我遲左開始做功課...」"
Big Bang,2015,指女生為男生口交。,一名女子在韓國團體Big Bang成員的紙牌公仔前跪下，對紙牌公仔做出疑似口交的動作，並拍下照片，照片隨後在網絡上被廣傳。
爽皮,2015,很爽的意思，跟「爽歪歪」意思相同。,係呢度返工真係好爽皮，日日訓覺、打機、睇戲都無人理。
愛情動作片,2015,同時包含愛情及動作元素的影片。,好心你唔好成日宅係屋企睇愛情動作片啦。
use7less,2015,「無柒用」的港式英文寫法。,咁簡單既野都唔識做，you are so use7less!
官到無求膽自大,2015,古有陳白崖「人到無求品自高」，今有林鄭月娥「 官到無求膽自大」。林鄭月娥解釋指她有膽承認制度有不足，有膽指出鉛水事件被政治化，有膽冒着被批評護短的風險為公務員討回公道。,"小明:「點解最近d官個個都咁大膽成日與民為敵？」
小強:「官到無求膽自大丫嘛...」"
jm,2015,指「姊妹」。Jie Mei是姊妹的普通話拼音，而jm則是Jie Mei的簡寫。,有無jm去過北韓旅行？值唔值得去？會唔會有機會見到金將軍？
方東昇,2015,無線電視節目《世界零距離》的主播。由於他的名字與毛記電視人氣主播「東方昇」相近，因而引起網民關注。加上方東昇不斷以獨特的風格在節目中搞爛gag，令其人氣直線急升，受歡迎程度甚至可以和東方昇相媲美。「方東昇」亦因此成為「搞爛gag」的代名詞。,"小明:「睇下果邊，有兩隻企鵝仔一齊跳水，場面好感人。」
小美:「下，有咩咁感人?」
小明:「You jump I jump，一往情深。」
小美:「......你方東昇上身呀? -_-」"
Any肥,2015,「Anyway」的諧音。,Any肥無論點都好，我都會一直係你身邊支持你。
射射,2015,「謝謝」的普通話讀音。,如果各位有任何有關旺財既消息請盡快通知我地，射射。
mola mola,2015,「無喇無喇」的諧音。,mola mola 男神福山雅治要結婚喇 ><
so9sad,2015,在「sosad」中插入助語詞「9」以加強語氣，也可以寫成「so7sad」。,"1. 出糧唔夠三日就無哂錢 so9sad
2. so7sad 阿仙奴又輸左，佢地已經好耐無贏過了..."
404 not found,2015,指Facebook。,中國國家主席習近平近日會見Facebook創辦人Mark Zuckerberg。由於Facebook一直被中國封鎖，在內地進入Facebook會出現404 not found頁面。因此有內地網民以「國家主席習近平在美國會見了404 not found網站負責人」形容此次會面。
首先...,2015,「首先...」是「首先你要有個女朋友」的簡寫，亦可寫成「Firstly」。,"小明:「好羨慕小華，咁後生就可以成家立室，幾時先輪到我結婚呀 T_T」
小強:「首先...」"
東方昇,2015,"毛記電視的主播之一，以愛國聞名。
東先生獨特的「爆缸包頭」招牌造型深入民心，其名字「東方昇」亦因此成為「爆缸包頭」的代名詞。","小明:「嘩！你咩事搞到個頭變左東方昇呀？」
小強:「唉，前幾日炒車撞親個頭...」"
Exact7ly,2015,將助語詞「7」融入「Exactly」之間以加強語氣。,"小明:「套戲真係好L悶囉，浪費哂我D時間！」
小強:「Exact7ly！早知係屋企訓多陣好過啦！」"
TGIF,2015,「Thank God It’s Friday」的簡寫，意思是「感謝神，終於來到星期五了！」。網民以TGIF來表示自己為週末的來臨而感到興奮。,TGIF！忙碌左一星期，聽日終於可以休息下了了。
推倒,2015,"男生把女生推倒在地上(或床上), 然後進行性行為。","不要以為只有男生才能推倒女生, 其實有些女生一樣想推倒男生。"
打丁,2015,"「打J」的另類寫法。因為「丁」與「J」字型相似, 所以網民常以丁字來取代J字。","小明:「有無新丁圖呀?」
小強:「妖, 咪成日掛住打丁啦!」"
娘娘,2015,"娘娘, 又稱觀音娘娘, 指喜歡收觀音兵的女生。

娘娘善於吸引男生, 讓對方對自己無條件付出, 社會上更出現了「收兵好過嫁人」的說法。",隔離班果個觀音娘娘係17收緊兵呀@@
腦細,2015,"「老細」的諧音, 員工對老闆的稱呼。有解釋指老闆被稱為「腦細」是因為老闆的腦袋通常都比較細。

「腦細」亦是100毛創辦人林日曦的花名。","1. 唉，腦細幾時先走呀？腦細未走我無得放工...
2. 好開心！頭先去100毛個年宵攤位拎到腦細既親筆簽名呀 :D"
D7689,2015,「Diu 7 689」的簡寫。,"國際品牌Puma於2015年1月25日在其Facebook專頁上載一幅印有「D7689」號碼布的照片, 有藍絲帶陣營人士認為該照片是在侮辱有689之稱的特首梁振英先生, 遂向Puma投訴。"
konglish,2015,"指港語, 又名香港式英文, 是一種帶有濃厚廣東話特色的非正統英文, 如Sor9ly, what 7 u say, is but等等, 通常只有香港人才會看得懂。","小明:「What do you want to eat?」
外國朋友:「is but la」
小明:「Oh. You speak Konglish!」"
What 7 u say,2015,「What 7 u say」是「你講乜7」的英文寫法。,"小明:「陣間食咩好?」
小美:「is L but」
小明:「What 7 u say?」
小美:「是L但呀」"
is but,2015,"「是但」的英文寫法。如果想加強語氣, 可以寫成「is L but」, 即「是L但」。","小明:「陣間去邊食飯好?」
小美:「is but la」

小明:「你想食中餐定西餐?」
小美:「is but is ok」

小明:「下星期放假想去邊呀?」
小美:「is L but」"
老老77,2015,「老老實實」的諧音。,老老77，有邊個仲未開始溫書？
土地問題,2015,"行政長官梁振英先生於立法會答問會上表示護老院出現虐老事件，是因為香港土地供應不足。

「土地不足」自此成為世人推卸責任的藉口。","老師:「小明你又欠交功課, 你今次仲有咩解釋?」
小明:「老師, 唔關我事架, 係土地問題...」"
超然,2015,"對於「超然」這個詞語, 社會上有多種不同解釋。有學者指「超然」的意思是對問題所持的觀點及態度超脫世俗。亦有學者解釋指其意思為異於平常人, 高超出眾。

註: 中聯辦主任張曉明指行政長官超然於行政、立法及司法三權之上。行政長官梁振英先生其後表示同意自己地位超然。",特首地位超然於三權之上。
小鮮肉,2015,指年輕、俊俏的男性。,"1. 聽講隔離department最新黎左個新同事, 係小鮮肉黎架!
2. 我已經到了大叔的年紀, 不再是小鮮肉了..."
脫毒,2015,脫離毒男的行列。,"想要成功脫毒, 第一步首先要重新建立自信, 遠離自卑。"
貓奴,2015,"愛貓人士為愛貓提供全天候服侍的五星級服務, 就像奴隸一樣, 所以被稱為「貓奴」。","身為忠誠既貓奴, 我每星期都會買新玩具俾主人。"
sss,2015,「屎」的諧音。,"1. 自從開放左自由行, 商場裡面成日出現sss...
2. 頭先仲以為呢隻係蝸牛，篤落去先知原來係sss..."
大媽,2015,指強國的中年女性。有美國媒體將其翻譯成英文版本的「Dama」。,"救命呀, 旺角又有大媽團喇..."
負皮,2015,「負評」的諧音。,"嘩, 段片好得人驚呀, Upload左上Youtube未夠一日已經有8千幾個負皮喇..."
梳乎,2015,梳乎是「Soft」的諧音，很柔软或很舒服的意思。也可寫成「疏乎」。,"1. 隻蛋好梳乎呀！
2. 聽日放假，要唔要一齊返東莞梳乎下？"
萌,2015,原意是「對某人物萌生喜歡的情感」。本來是日本的御宅族用語，對象通常是動漫裡的美少女角色。近年，香港人把「萌」當成「可愛」那樣使用，用來形容任何可愛的人或動物。,"1. 隻狗仔好萌呀！
2. 熊本熊無時無刻都咁萌。
3. 隔離班個女班長成日都扮萌，好難頂呀。"
魚柳bell,2015,指魚柳包。,"原來麥記的魚柳bell只得半塊芝士, 感覺受騙了.."
蝦薯,2015,「harsh」的諧音。刻薄、苛刻的意思。,"呢個course好蝦薯架, 唔好take呀。"
Sor9ry,2015,"將「9」字插入「Sorry」中以加強語氣, 亦可寫作「Sor9ly」。","民仔:「阿Sir, 我想問點解單case咁耐都未調查完既?」
阿Sir:「Sor9ry呀, 我地仲有好多野要做架, 你估我地好得閒呀!」"
突破盲腸,2015,「突破盲點」的另類寫法。意思是找到一個大家都沒有注意到的重點。,"「大家睇下呢張相, 好多靚女!」
「正呀!」
「女神呀!」
「巧令令呀!」
「班女仔後面個肥仔好似肥仔金呀!」
「...你突破盲腸了」"
送禮勤,2015,"網民為歌手李克勤改的花名。

2005年李克勤將一份禮物送給來港進行友誼賽的曼聯, 後來該份禮物被發現遭棄置於更衣室內, 李克勤因而被賦予「送禮勤」稱號。","這位蒙臉歌手的歌聲有點送禮勤的味道, 看起來也有點像送禮勤, 不過比送禮勤年輕。"
一男子,2015,"指香港特首梁振英先生。

「香港電視」免費電視牌照申請被政府否決, 商務及經濟局局長蘇錦樑回應時指已考慮「一籃子」因素後才作出此決定。有輿論認為這其實是「一男子」梁振英因素。","救命呀, 我唔想再睇膠劇喇, 一男子幾時肯發牌俾港視呀?"
要吃好西,2015,"指「要吃好東西」。

男歌手吳業坤本來打算在Facebook上留言「今天工作累了，要吃好東西」, 卻誤寫成「今天工作累了，要吃好西」。「要吃好西」從此被納入潮語字典。","1. 今天工作累了, 要吃好西。
2. 華哥今晚諗住帶我地去邊度食好西呀？"
wwwww,2015,笑的意思。用法跟「XD」一樣。,頭先套戲好好笑呀wwwww
啪啪啪,2015,指男女進行性行為。,"1. 喂, 有無睇新聞呀？最近有對情侶係北京uniqlo試身室啪啪啪, 仲拍埋片添!
2. 你個樣咁攰既，今朝同女友啪啪啪完呀？
3. 唉，屋企成日都有人，有時想啪啪啪下都唔得。
4. 隔離房對情侶晚晚都啪啪啪到勁大聲，驚死人唔知咁..."
小毒毒,2015,毒男的另類寫法。,"小獨:「我是一個沒有人要的小毒毒, 註定無伴終老, 孤獨一生。」
小愛:「唔好咁灰心啦, 你既模型同漫畫會一直陪住你架嘛～」"
熟肉,2015,加入了中文字幕的動畫、劇集或電影。,有無人有龍珠超熟肉? 好想睇呀。
生肉,2015,沒有字幕的動畫、劇集或電影。,"小明:「進擊的巨人劇場版生肉出左喇！」
小強:「得生肉，點睇呀？你估個個好似你咁識日文咩><」"
娃娃舜,2015,"網絡紅人黃宏舜的花名。黃宏舜於2001年9月7日的「都市閒情」中表現林曉培的《娃娃愛天下》, 以獨特舞姿及唱功一曲成名, 因而被賦予「娃娃舜」稱號。","等左14年, 娃娃舜終於復出喇!"
娃舜天下,2015,"黃宏舜於2001年9月7日的「都市閒情」中表現林曉培的《娃娃愛天下》, 以騎呢的蛇舞配合五音不全的唱功, 節目播出後一直被恥笑, 網民稱他為「娃娃舜」。娃娃舜自此隱匿多年, 逐漸被人們淡忘。

2015年7月27日娃娃舜突然現身荔園, 與雨僑合唱《娃娃愛天下》, 再度表演其獨特蛇舞。雖然及不上專業歌手, 不過娃娃舜的舞姿及唱功都比14年前進步, 娃娃舜的出現獲全場歡呼。

娃娃舜的勇氣、毅力及永不放棄的精神獲得廣大網民認同, 更有網民提議將「娃舜天下」列入成語字典, 以表掦「娃娃舜精神」。","今次失敗左咪下次再黎過囉, 千祈唔好放棄啊, 有無聽過「娃舜天下」既故事? 只要一日唔放棄, 就一日都有機會!"
愛字頭,2015,指愛港力、愛港之聲等名字以「愛」字開頭的親政府組織。,愛字頭組織最近好活躍。
女神,2015,漂亮、善良、純潔、溫柔、有如神一般完美無瑕的女生。,"小愛又靚又溫柔又有學識, 簡直係我女神!"
你識條鐵咩,2015,「你識條毛咩」或「你識條春咩」的另類寫法。,"小文:「真係唔明點解呢幅畫會值千幾萬」
小強:「藝術既野我地識條鐵咩」"
觀音兵,2015,"形容男生為了追求心儀的女生, 對她無條件的付出, 心甘情願為她做各種事情, 任勞任怨。","小強:「小明, 你唔好對小美咁好啦, 人地當你係觀音兵咋, 回頭是岸啊。」
小明:「愛情既野你唔明架喇。我相信只要繼續對小美無條件付出, 終有一日可以感動佢!」"
廢中,2015,學歷低、缺乏獨立思考、人云亦云的中年大叔。,"班廢中唔識獨立思考, 俾人呃左都唔知。"
貴姓呀陳生,2015,"前特首董建華先生在一次記者會上問記者:「貴姓呀？陳生」, 引起全場哄笑。部份網民以「貴姓呀陳生」來取笑董先生。","記者:「你好, 我係西方日報記者陳五毛。」
呀董:「貴姓呀？陳生」"
sheshe,2015,"女性和女性有親密關係, 一般指女同性戀。","我讀左女校5年, 完全無機會接觸男性, 我開始有d懷疑自己係sheshe。"
U seem like fun,2015,"2008年因豔照事件而宣佈無限期退出娛樂圈的藝人Edison近日被發現於instagram向一名陌生美女發出一個私訊, 其內容為「U seem like fun」。

私訊內容曝光後, 大批網民擁到Edison的instagram, 每人留下一句「U seem like fun」, 藉此諷刺Edison。

註: 專家指「U seem like fun」的表面意思為「你好似幾玩得」或「你似乎幾有趣」。","呀陳：「我好玩得架」
呀希：「Yea u seem like fun」"
壁咚,2015,"男生把女生慢慢逼向牆邊，然後伸出手拍擊牆面並發出「咚」的聲音, 這個姿勢稱為「壁咚」。

「壁咚」能夠讓男生盡展男性魅力, 是最能令女生臉紅心跳的浪漫姿勢之一。","聽講「壁咚」係最容易成功既表白方式, 不如你試下啦。"
gathering,2015,"與伴侶或親密朋友在不見得光的地方幽會。

出處：2014年女藝人Coffee被發現與富家公子一起走進殘廁30分鐘，後來Coffee解釋指當時正與朋友在「Gathering」。此事件被網民稱為「殘廁Gathering」。",你有無睇新聞呀？尋日有對情侶係Uniqlo更衣室gathering...
藍絲帶,2015,指香港雨傘運動的反對者。,"雨傘運動其間, 香港分為兩個陣營。一方是追求民主的黃絲帶, 另一方是反對佔中的藍絲帶。"
黃絲帶,2015,指香港雨傘運動的參加者或支持者。,"雨傘運動其間, 香港分為兩個陣營。一方是追求民主的黃絲帶, 另一方是反對佔中的藍絲帶。"
些牙,2015,「Share」的諧音。,睇咩睇到咁開心呀？些牙俾大家一齊睇啦！
廢青,2015,頹廢、不務正業、一事無成的青年。,"呀叔：「班佔中廢青為左扮英雄, 阻住哂人地做生意, 搞到車到無得搭, 快d拉鬼哂佢地啦！」
小鋒：「你有無到現場睇過?」
呀叔：「我日日睇TVB」"
毛孩,2015,"又稱「毛毛」, 指雜誌《100毛》及網絡媒體平台《毛記電視》的員工。",毛孩尋日打電話俾田北俊做電話訪問，好神通廣大呀@@
CD勤,2015,香港歌手李克勤是公認的零瑕疵歌手，現場演繹完美得像播CD一樣，因為被稱為CD勤。,雖然呢位蒙面歌手蒙住塊面，但一聽到佢完美無瑕既歌聲，我就知道佢係CD勤了。
典解,2015,「點解」的諧音。,你要走喇？典解既？
打耳,2015,「得意」的諧音。,睇下果邊隻狗仔，好打耳啊，好想帶佢返屋企！
毒撚,2015,"又稱「毒L」或「毒男」。一般指整天待在家裡、沒有自信、不懂與異性相處的男性。

由於毒撚沒有伴侶, 在街上見到別人都一雙一對時會感到難受, 所以社會上出現了「毒撚一個更開心」的說法。","對毒撚來說, 情人節是一個殘酷的日子。"
方丈,2015,"形容器量狹小的人。

此潮語出自周星馳電影《食神》。","你大獲喇, 方丈份人好小器架。"
肯肯定,2015,"非常肯定的意思。

此潮語由鍾樹根議員發明。","個市聽日肯肯定會升, 除非唔升。"
爽YY,2015,很爽的意思。可以寫成「爽丫丫」或「爽歪歪」。,"下星期連續放五日假, 爽YY~"
Tree Gun,2015,網民為鍾樹根議員起的花名。,"繼「子烏虛有」後, Tree Gun又教大家新成語「雞毛鴨蒜」。"
Tree根,2015,網民為鍾樹根議員起的花名。,"繼「子烏虛有」後, Tree根又教大家新成語「雞毛鴨蒜」。"
課金,2015,以現金購買網絡遊戲中的虛擬物品。,Puzzle & Dragons岩岩出左批新寵，又要課金了...
括目相看,2015,"同義詞為刮目相看，指令人對人或物有新的看法。
油尖旺區一中學教師在課堂上無意地宣揚了“括目相看”此四字詞。",某教師製作的試卷原來只是複製和貼上，真令人對他括目相看。
雞毛鴨蒜,2015,不重要的意思，是「雞毛蒜皮」的同義詞。此新四字詞出自立法會議員鍾樹根準博士。,"1. 這雞毛鴨蒜的事無須要再評論了。
2. 點解你地班記者成日都要提起七警打人呢d雞毛鴨蒜既案件？你估我地警方好得閒呀？我地仲有好多好重要既案件要處理架，例如亂拋垃圾、衝紅燈、違例泊車！"
紅都面哂,2015,演員陳豪於電視劇《心花放》中把「面都紅哂」誤說成「紅都面哂」，後來被網民發現，「紅都面哂」自此成為家傳戶曉的潮語。,陳豪：「哇，大佬紅都面哂喇」
19仔,2015,"「濕鳩仔」的諧音。

形容自以為自己很偉大、自我感覺良好的人。","我忍左條19仔好耐了, 成日以為自己好醒, 其實豬頭炳。"
Delay No More,2015,粗口「屌你老母」的諧音。,"小英:「咦! 港鐡又故障喎!」
小華:「Delay No More!」"
等埋發叔,2015,"2015年6月18日，33名一直自稱支持政改的建制派議員稱要「等埋發叔」，於投票前一刻集體離場，導致政改議案以8票贊成、28票反對大比數被否決。一班建制派支持者覺得自己被出賣，認為「等埋發叔」只是藉口。

「等埋發叔」自此成為遲到的藉口。","小根：「你又唔知醒呀？遲到成半粒鐘！」
小鋒：「唔係呀，我想等埋發叔先出門口，所以遲左...」"
Sorry for 1999,2015,Sorry for 1999，也可以寫成Sor for 1999，其中「1999」是「一鳩九舊」的諧音，即講野一舊舊、不清晰的意思。Sorry for 1999整句的意思為「唔好意思，我講野講到一舊舊」，文雅一點可以寫成「我知道我的話有點辭不達意，請見諒」。,講左咁多，唔知大家聽唔聽得明，Sorry for 1999。
毒拎,2015,「毒撚」的諳音，跟毒男、毒L意思相同，指經常待在家裡、缺乏自信、不善於交際的男性。,對毒拎黎講，聖誕節係一個殘酷既日子，街上面個個都一雙一對...
毒L,2015,又名「毒男」或「宅男」。一般指整天待在家裡、不愛外出交際、缺乏異性緣的男性。,你睇下小民同小愛幾恩愛，羨慕死班毒L。
廢燉,2015,"指廢物。
蔣麗芸議員於2015年5月7日在立法會小組討論上提到「我可唔可以話你地泛民全部廢燉呢？」",你地呢班廢燉，有書唔讀，日日係度搞搞震！
公平咩,2015,網民在遇上不公平的事時就會說「公平咩」。,"「碧咸41歲仲咁型仔。」
「公平咩」"
GG,2015,完蛋了。,我GG了... 對手太屈機，根本無得打。
UASC,2015,「You are so cheap」的簡寫。,偷我野? UASC!
慈母,2015,"指警察。
出處：2014年香港雨傘運動其間，警務處處長曾偉雄指警員有如慈母一樣保護示威者。",成日衝紅燈，俾慈母拉左唔好喊呀！
sb,2015,傻逼,你真係sb
480,2015,死八婆,你個480!
5g,2015,「唔知」嘅意思,你5g就5g啦，仲扮晒野！
講經,2015,「講經」形容一個人說話很多，好像讀經文般長篇大論。「講經咩」的意思為「咁L多野講」。,講經咩，咁L多野講！
hehe,2015,"男性和男性有親密關係, 指男同性戀。","1. 原來佢係hehe。
2. 哇，你兩個唔著衫係張床度搞咩呀？唔通你地係hehe？"
ggebsong,2015,"出自EXO伯賢，
形容一件事很可惜",吓，你撲唔到飛？ggebsong
FF,2015,"Final Fantasy(電子遊戲)
形容人愛幻想",FF無極限
奶撻,2015,大件事喇。,"收數佬殺到, 呢鋪奶撻喇!"
有SO,2015,即有着數,恤衫$80蚊件，兩件8折即$72蚊，有SO喎！
l4l,2015,l4l是「like for like」的縮寫，常見於Instagram等社交平台，意思是你讚好我的post，我亦會讚好你的post，簡單來說就是互相讚好的意思。,喜歡這段影片的朋友請給我一個讚好 #l4l
f4f,2015,f4f是「follow for follow」的縮寫，常見於Instagram等社交平台，意思是你follow我，我亦會follow你，簡單來說就是互相follow的意思。,喜歡這段影片的朋友請follow我 #f4f
shoefie,2015,Shoefie把shoes及selfie兩字合拼，意思是為當天穿上的鞋拍照。,"1. 今天穿日系文青鞋 #shoefie
2. 買完新鞋第一件要做嘅事當然係shoefie :p"
ootd,2015,ootd是「Outfit of the Day」的縮寫，意思是當日穿搭，常見於Instagram，喜歡拍下每天造型的人都會在照片加上#ootd hashtag。,今日走文青路線 #ootd
TBT,2015,"TBT全寫為「Throwback Thursday」，亦可寫作「TB」或「Throwback」，中文可譯作「懷舊星期四」，是一個流行於網路世界的活動，常見於Facebook、Instagram和Twitter等社交平台，網民會上載一些昔日的懷舊照片，並附上#tbt或#ThrowbackThursday hashtag。

最初因為星期四是一星期裡最忙碌的一天，大家都沒有時間拍照，所以就將活動定在星期四，加上Throwback和Thursday兩字押韻，就將活動命名為Throwback Thursday。

後來大家開始於其他日子上傳舊照，就索性將hashtag改為#tb或#Throwback。",影呢張相既時候我地仲係十幾歲 #tbt
God use VPN,2015,佛跳牆的英文寫法，網民把「佛」翻譯為God，並把「跳牆」翻譯為use VPN。,今晚既菜式係God use VPN。
沒女,2014,沒錢、沒樣貌、沒身材、沒成就的女性。,唉，我呢d沒女注定要孤獨終老架喇。
爆rp,2014,"Rp=renpin 人品
姐係人品爆發,好好彩","琴日爆rp,抽到ip6"
msw,2014,指「無所謂」。msw取自「無所謂」英文譯音「Mo Sor Wai」開頭的三個英文字母。,"「陣間想食咩？」
「msw啦」"
鳩嗚,2014,「購物」的普通話讀音。,喂，今晚一唔一齊去鳩嗚？
人妻,2014,指已經結了婚的女性。,"1. 恭喜妳終於升呢成為人妻，要幸福啊！
2. 新黎果位同事個樣好後生，估唔到佢已經係人妻 @@
3. 你就好啦，我都好想快d做人妻啊！"
科科,2014,"用來代表笑聲，用法跟「呵呵」相似。

注：科科的國語發音像笑聲。",這段短片超好笑的~ 科科~
KS,2014,"KS是指「其實」。（註：KS是「其實」廣東話發音的首個字母）

KS亦可以指Kill Steal，即一名玩家於網絡遊戲中竊取了另外一名玩家的獵物，俗稱「搶人頭」。","1. KS我真係好眼訓。（其實我真係好眼訓）
2. 大家不要KS啦！（大家不要搶人頭啦！）"
是咪,2014,「係咪」的另類寫法。,小明最近成日都偷望我，佢是咪鐘意左我呀？
ching,2014,"c hing
師兄的英文拼音",求各位ching幫忙
jed,2014,jed是J的過去式，跟「J左」、「已J」、「已射」意思相近，較文雅的寫法有「已自慰」或「我手淫了」。,「你今日J左未呀？」「jed」
低頭族,2014,指低著頭玩手機的人。,"嘩, 成架地鐵都係低頭族..."
倒抽一口梁氣,2014,香港特首梁振英夫人受訪時提到「當我知道他是大學講師時，我不禁倒抽一口涼氣」，後來被網民改成「倒抽一口梁氣」。表示失望的意思。,"1. 當我知道阿英當選特首時，我不禁倒抽一口梁氣...
2. 望住d水貨客將巴士當做貨車，我真係不禁倒抽一口梁氣，希望政府可以快d解決水貨客問題啦，再咁落去我地以後連車都無得搭..."
cmg,2014,cmg為「Chi Ma Gun」的簡寫，即「黐孖筋」。意思是指別人神經不健全，有兩條腦子神經粘在一起導致功能失常。跟「黐線」、「白癡」及「傻傻地」意思相近。,"1. 你都黐孖筋既，同你講都晒氣。
2. 你黐孖筋架？呢度唔可以餵雀架！"
九菜,2014,九菜與搞錯的發音相近,九菜！點可以咁嫁！
kuso,2014,"原本是「可惡」的意思, 用作罵人。但近年開始被解作「惡搞」或「搞笑」。","果班人既留言好kuso, 笑死我了XD"
賣飛佛,2014,My favourite 我的最愛,You are 賣飛佛
灰機,2014,"由屈機引伸過來, 原意指不能在遊戲中擊敗AI心生傷感之情, 用來被用作形容一切令人心灰的事。","唉, 又輸左, 好灰機呀!"
88,2014,「Bye Bye」的諧音。,88 聽日見～
不能同意更多,2014,「不能同意更多」是由英文「Can't agree more」直接翻譯過來，解作非常同意。,"小明:「套戲真係好唔掂，悶到爆！」
小強:「不能同意更多。」"
合皮巢,2014,英文happiness，幸福、快樂的意思，諧音happy nest的香港話版本,佢地新婚，好合皮巢喎！
剝花生,2014,隔岸觀火、等睇戲,嗰兩個人鬧交，我哋企埋一邊剝花生。
914,2014,就要死,我914
無朋友,2014,「無人有」的諧音。,"1. 小民真係可愛到無朋友呀！
2. 小強頭先竟然唔記得拉褲鏈，真係柒到無朋友！"
TMD,2014,TMD是指粗口「他媽的」，用來表達怨恨、憤怒等情緒。「他媽的」普通話拼音為Tā Mā De，TMD是取自其拼音的首個字母。,"1. TMD，佢地真係好煩！
2. 這個牛肉麵真是TMD好吃。"
洋蔥圈,2014,指香港特首梁振英先生。,唔好咁多事啦，我地又唔係洋蔥圈，呢d事唔輪到我地理架喇！
689,2014,"指香港特首梁振英先生 (註：梁振英先生以689票當選第四屆行政長官)。

由於689中少了7字，因此689亦有「無柒用」的意思。","1. 反對小圈子選舉！689下台！
2. 689，無柒用！"
55555,2014,「嗯嗯嗯嗯嗯」的諧音。,"男友：「天氣凍記得著多件衫呀」
女友：「55555」"
厚多士,2014,「好多事」的諧音，多管閒事的意思。可重複數次加強語氣。,"1. 我係地鐵食野關你乜事呀? 你又唔係警察又唔係梁振英! 你厚多士呀! 你厚多士呀! 你厚多士呀! 你厚多士呀! 你厚多士呀!
2. 小美真係厚多士，好似咩都關佢事咁，人地帶漫畫返學之嘛，又無影響到佢，咁都要告發人地。"
你的樣子如何，你的日子也必如何,2014,意思指外表決定一切。一個人的外表端正，異性緣通常都不錯，收入也不會差。相反，欠缺外表的人則注定欠缺異性緣，事業亦相對較難成功。,"善信：「大師大師，我已經做左好多善事，點解我到而家仲未有女朋友？」
大帥：「你的樣子如何，你的日子也必如何。」"
kai,2014,很傻的行為,佢成日做埋d好kai既野
車頭燈,2014,指女性的胸部。,乜你咁變態架，成日望住人地對車頭燈。
siu bao,2014,笑爆,我siu bao 勾地 莫望主婦
ggapsong,2014,感到遺憾或很抱歉,想買嘅裙俾人買哂！（ggapsong）
nofilter,2014,nofilter是常見於Instagram的hashtag。Instagram提供了許多filter（濾鏡），大家在分享照片時都喜歡搭上不同濾鏡，讓照片更漂亮迷人。而在照片上加上#nofilter hashtag的意思是指這張照片沒有加入任何濾鏡。,"1. 原相直出無加filter #nofilter
2. 山頂影日出，無P圖無加filter！ #nofilter"
天文台,2014,八卦，消息靈通,佢係我哋之中嘅天文台。
fd子,2014,指朋友，也可以寫成「friend子」。,"1. 有無fd子想打牌？我地差一隻腳～
2. 過黎報名啦，參加我地工程系既ocamp，保證你識到新fd子！"
中女,2014,步入中年的女性。,唉，真係光陰似箭，眨下眼大家已經由變哂中女。
睇L住,2014,在「睇住」中插入「L」字加強語氣。,睇L住呀，差d俾部車撞死你呀。
向左走向右走,2014,「撚」字的代詞。,"1. 下次行山都係唔好叫小明喇，佢行得咁向左走向右走慢。
2. 今日真係好向左走向右走凍。"
MCM,2014,MCM全寫為「Msn Crush on Monday」，是美國流行的一項網絡活動，大家會在星期一分享自己喜歡的男生照片，通常是男星或名人。,今日MCM要分享既係木村拓哉
WCW,2014,WCW全寫為「Woman Crush on Wednesday」，是美國流行的一項網絡活動，大家會在星期三分享自己喜歡的女生照片，通常是女星或名人。,今日要分享嘅係Emma Watson #WCW
不該,2014,"即「仆街」。
註: 「不該」的普通話讀音與「仆街」的廣東話讀音相近。",689好不該，成日挑釁市民、分化社會。
wts,2014,"wts是手機通訊軟件Whatsapp的簡寫。
wts連結：https://web.whatsapp.com/","1. 你有咩就wts我啦!
2. 日本口罩50個$120，有意者請wts落單。
3. 我每晚做既野就係等女神覆我wts.."
懶人包,2013,將一些複雜的事件或資料完整地整合成一篇簡單的文章，被整合的文章稱之為「懶人包」。,"小明:「最近成日聽到人講佔中佔中，到底佔中係咩黎架？」
小美:「講起黎一匹布咁長，陣間send個佔中懶人包俾你慢慢睇啦。」

小明:「大獲喇，我後日就出發去首爾旅行，但而家仲未開始plan行程，連首爾有咩景點都未知！」
小美:「睇首爾懶人包啦...」"
bk,2013,"香港四大論壇之一「親子王國 Baby Kingdom」的簡寫。

注：香港四大論壇分別為香港討論區、Uwants、高登及親子王國。",有無bk既媽媽有俾小朋友學游水？
大檸樂,2013,"「大撚鑊」的諧音。

也可以寫成「大檸鑊」。","1. 呢鋪大檸樂喇，校長發現左我地上堂打邊爐呀！
2. 大檸樂！唔記得接個仔放學！唔講喇，拜拜！"
nvm,2013,「Never mind」的簡寫，即「不要在意」的意思。,"A君:「我今日黎唔到啊，sorry!」
B君:「nvm，搵日再約過!」"
囧,2013,"囧是一個表情符號，有人認為它看起來像失落的表情，亦有人認為這是一個驚訝的表情。
可寫成「囧rz」增強意境。","1. 唉，考試又肥佬，今次實俾阿爸鬧死 囧
2. 囧 小明有無咁屈機啊，又100分..."
A380,2013,A380是指情場高手，擁有極豐富的戀愛經驗。相反，A0是指從來沒有戀愛過的單身人士。,哇！佢大學都未畢業，就已經A380。
Double May,2013,Double May是指胸部豐滿的女生。,據聞有位台灣女生向心儀的男生示愛，男生回覆一句「Why Double May」，女生百思不得其解，後來才知道自己被拒絕了，「Why Double May」其實是國語「我愛大波妹」的諧音，男生拒絕女生之餘更暗指女生身材平平無其。
IG,2013,「Instagram」的簡寫。,有無睇小明IG? 佢成日post靚女相 A_A
FB,2013,「Facebook」的簡寫。,阿媽:「咁夜仲上FB?」
食蕉,2013,保安員,我係食蕉
89078,2013,"透過三個助語詞，將使用者當時的內心感受注入到「拜拜」之中，把平凡的道別昇華到另一個層次。

「89078」亦可以解作「白痴你走吧」。",唉，無野同你講，89078。
金沙哈咪打,2013,韓文感謝嘅意思,佢幫我咁大忙，真喺金沙哈咪打佢囉！
Laugh Die Me,2013,「笑死我」的英文寫法。,"頭先套戲勁好笑, 星爺跳舞果段真係laugh die me!"
87,2013,「白痴」的諧音。,"1. 唔該你唔好成日做埋d 87啦！
2. 佢係咪87架？以為帶住黑超就無人認得佢..."
令女,2013,「靚女」的火星文寫法,婷婷真係好令女!
5d,2013,快點兒,已經好夜喇，你5d訓覺啦！
濕鳩,2013,明明只是微不足道的路人甲卻以為自己很重要，過份高看自己。「濕鳩」亦可寫成「19」。,濕鳩上司成日識少少扮代表，以為自己好叻。
mm,2013,台灣人對女生的稱呼，可以解作妹妹、美眉或美女。,看不出這位mm已經是人妻了！
a0,2013,指單身且從來沒有拍過拖。,唉，成24歲人仲係a0。
j圖,2013,指一些可以挑起男生性慾的性感女生照片，不少男生會藉j圖來自慰。,尋晚論壇有人post左幾張新j圖，聽講係女明星黎架！
Why not both,2013,意思是「何不兩者都要？」。,"1. 聽日去燒野食定踩單車好？Why not both?
2. 買樓好定買車好？Why not both?
3. 小美同小欣選邊個做女友好？ Why not both?"
dls,2012,dls是粗口Diu La Sing（屌那星）的英文縮寫。,dls又唔記得帶銀包！
呃蝦條,2012,「呃蝦條」是「呃西屌」的諧音，「呃」是指欺騙，「西」是指女性的性器官，「屌」是指性行為，整句的意思是哄騙少女令她與自己進行性行為。,聽講新黎果位轉校生好鬼風流，成日呃蝦條！
firm,2012,「firm」常見於大學生圈子，意思跟「close」相似。「好firm既朋友」是指真正的朋友、親密既死黨，相反詞為「hi-bye friend」。,"1. 唔知點解我同中學朋友可以好firm但上到大學就淨係得hi-bye friend。
2. 唔鐘意啲人成日扮firm。
3. 我好慶幸大學上莊時識到一班firm firm莊員。"
派膠,2012,做一些愚蠢的事情，或者發表一些愚蠢的言論。,Tree gun又係立法會派膠喇，連串流都唔識解。好心佢啦，出少句聲無人話佢啞架。
李氏力場,2012,"傳聞指香港首富李嘉誠為防止員工因打風導致無法上班, 所以開發了李氏力場來抵禦颱風。每當有颱風出現, 李氏力場就會啟動, 防止颱風接近香港。","小明:「有個颱風黎緊呀, 後日可能有假放喎!」
小強:「唉, 佢過到李氏力場先算啦!」"
龍友,2012,攝影愛好者,果邊有班龍友圍住個model影相
chok,2012,耍帥、擺出懶型pose。,你呢個樣好chok喎！
燒你數簿,2012,粗口「屌你老母」的諧音。,個的士司機竟然連IFC都唔識去，真係想燒佢數簿。
機車,2012,形容一個人很麻煩、很難搞、要求多多。,你唔好咁機車得唔得呀！
硬膠,2012,粵語粗口「戇鳩」的同義詞。,"1. 你唔好咁硬膠得唔得呀！
2. 你都硬膠膠既，串流同下載根本係兩樣完全唔同既野，講極你都唔明！"
請你繼續吹,2012,當不相信人們說的話，而對人開玩笑的說（你繼續講丫！）,"你知唔知我琴晚見到都敏俊丫！佢仲錫左我一啖丫！
請你繼續吹~"
dry,2012,沈悶、無新鮮感,"自從同女手分左手之後, 我的生活日日都好dry"
中出,2012,指男性在沒有用避孕套的情況下在女性的體內射精。,中出隨時會搞出人命，唔好為左一剎那既快感累到自己後悔一生呀！
脾液了,2012,"脾：兩腿之間
液：液體
了：鳥的同音
由 baby kingdom 一位咤叱一時的會員""lazyb***j**y"" 所創，用來形容她與其丈夫。相信原文想寫＂比翼鳥＂。後來被用來借代房事。",Lazy 姐去左脾液了，今晚唔得閒上bk。
禮義廉,2012,"部份網民以「禮義廉」稱呼政黨民建聯, 諷刺他們「無恥」。","調查員:「先生你好, 請問你頭先投票投左俾邊個政黨?」
小明:「禮義廉」"
898,2012,898為「拜鳩拜」的諧音，助語詞「鳩」讓一句簡單的「拜拜」注入了挑釁性。,後樓梯食煙俾校長捉到，呢鑊你仲唔898？
Laugh Bird,2012,Laugh Bird直翻譯為中文就是「笑鳥」，即「笑了」的諳音。,睇完呢張咁有創意既相，真心笑鳥。
PS,2011,"PS是指圖像處理軟件Photoshop的簡寫。P圖則是指以Photoshop或類似圖像處理軟件修圖。

PS有另一個意思是指「備註」、「附註」或「注釋」，為Postscript或Post Scriptum的縮寫。用法是在文章末加上PS然後寫下備註內容，用作補充文章的不足，讓內容更詳細。也可以寫成「ps」、「P.S.」或「p.s.」。","1. 你張相係咪PS過架？瘦左咁多！
2. 聽講你男朋友係PS達人喎，可唔可以叫佢幫我執走d暗瘡啊？
3. See you this weekend! p.s. don't forget to bring your invitation card.
4. 周末見！p.s. 記得要帶邀請卡"
小學雞,2011,形容行為幼稚得像小學生的人。,"好心你唔好咁小學雞啦, 咁大個人仲好似小朋友咁。"
拍謝,2011,台語「對不起」的國語諧音。,"拍謝, 剛才在忙, 沒空接電話。"
飛釘,2011,又稱「凸點」，指乳頭的形狀隔著衣服浮現出來，此現象通常於女生沒戴胸罩而衣服偏薄的情況下出現。「飛釘」亦同樣適用於男生。,"1. 今年d靚模個個都故意飛釘，破壞哂書展既健康形象...
2. 好心你唔好著件咁緊身既衫黎打波啦，一出汗就飛哂釘！"
u2,2011,「You too」的諧音。,"小民:「祝你有個愉快的週末」
小愛:「u2 ^^」"
無奶油,2011,「無理由」的諧音。,無奶油架喎，今日明明係星期日，屯門公路應該唔會塞車架喎。
巴打,2011,"brother的中文譯音, 即兄弟的意思",有無邊位巴打可以幫幫手呀?
打邊爐,2011,一班人圍著垃圾桶吸煙,"自從政府開始禁煙後, 一到lunch time就好多人起路邊「打邊爐」"
爛gag,2011,不好笑的笑話，又稱冷笑話。,"1. 唔好成日搞爛gag啦！
2. 方東昇真係實至名歸既爛gag王，由節目第一集開始搞爛gag一直搞到最後一集。"
Hea,2011,懶散、不認真、無所事事,唔好日日起屋企Hea啦
頹,2011,委靡不振、敷衍,我日日都唔想溫書，好頹呀
集郵,2011,「集郵」原本的意思是指收集郵票，潮語「集郵」的意思則是指同時追求多名異性或性伴侶。,聽聞新同事有集郵既習慣，大家小心啲。
大西北,2011,屯門，天水圍與元朗一帶地方距離九龍，港島，離島等地頗為遙遠。平日生活主要在港九的香港人甚少去屯門，天水圍與元朗一帶地方。故此，他們若表達自己難得去該地方，會以「大西北」取代地名，突顯該地方對於他們來說有多遙遠。,"「今日拜年要去大西北啊。」
「你住大西北喎，你出嚟啦，唔係要所有人就你入嚟呀嘛。」"
HBD,2011,「Happy Birthday」的簡寫。,"老婆HBD, 今年有咩生日願望啊?"
事業線,2011,指女生的乳溝。,"1. 雞扒妹既事業能夠咁成功，係因為佢既事業線夠深。
2. 對面檯既女同事成日露事業線，又成日烏低身擺埋d誘人pose，叫我點集中精神做野呀。"
sor,2011,Sorry的簡寫。,"路人:「喂，你知唔知你頭先踩到我呀？」
小明:「sor lo」"
雙非,2011,指父母親皆不是香港居民的小孩。,最近愈來愈多雙非兒童，就快迫爆香港 :'(
豬扒,2011,指很肥的女生。,你再唔減下肥遲早變豬扒！
超錯,2011,指「非常錯誤」。,行政長官曾蔭權於2010年以「起錨」標語宣傳政制方案，但不獲市民支持。部份市民將其宣傳標語「起錨」改寫成「超錯」，暗示曾蔭權所宣傳的政制方案是錯誤的政策。
躺著也中槍,2010,「躺著也中槍」簡寫「躺槍」，指某人甚麼也沒做過，沒招惹過別人卻被別人攻擊，無辜地受牽連。,雖然今場比賽表現好差，但阿強明明無份出場都比人嬲，真係躺著也中槍，好慘..
Hi Auntie,2010,Hi Auntie字面上是「伯母你好」的意思，實際上是指粗口「屌你老母」。,我真係hi auntie佢！
lmao,2010,「Laughing My Ass Off」的簡寫，意思是笑得不行了。,齊昕:「呢位網民既笑話太有趣了 lmao」
達人,2010,指某一方面的高手或專家。,"1. 小明花了三十年環遊世界, 走遍各個大小城市, 絕對稱得上是旅遊達人。
2. 小美係香港既時裝達人, 時裝界無人唔識佢。
3. 聽講最近有個LOL達人叫小強, 好想同佢打一場。"
潮文,2010,「潮文」中的「潮」字本身是指潮流，這裡用作反語，潮文是指一些舊的網絡文章，通常為網絡傳言或一些半真半假的新聞，不少潮文最終演變為疑幻疑真的都市傳說，一般網民都會一笑置之，但亦有網民會信而為真。,"「你有無睇過呢篇新聞？個主角都慘呀T_T」
「下，呢篇潮文黎架喎...」"
幫緊你幫緊你,2010,知道某人很急需要幫助，但完全沒有意思想盡快解決，因此用這句說話來敷衍。,出自電影《保持通話》。
潮語,2010,潮語，即潮流用語，英文可譯作Trendy Words或Popular Slang，是指以前從沒出現過，現在由年輕一代所創造出來的詞語，以嶄新的演繹手法將傳統詞彙重新包裝。潮語跟傳統詞彙最大的分別是潮語具有時代性，壽命較短。,頭先班後生仔講既潮語聽到我一頭霧水，想唔認老都唔得...
毒男,2010,欠缺社交能力的單身男性,傻強佢日日喱埋係屋企，成個毒男咁
港女,2010,一般指貪錢及性格頑劣的香港女性。,"小玲係典型港女, 每次出街都當男朋友係提款機..."
火星文,2010,一般人看不懂的語言。,"小美:「禾巧京京」
小明:「唔該你唔好再打火星文，睇得我好辛苦呀。」
小美:「5 ho 2 c lo」
小明:「......」"
潛水,2010,指某人消失了好一段時間。,"1. 你搵傻強呀？佢潛左水好耐喇喎。
2. 仲有兩星期就考試了，黎緊我會潛水一段時間，無咩事唔好搵我，有事更加唔好搵我。"
潮童,2010,崇尚潮流的兒童,最近愈黎愈多潮童...
收皮,2010,讓別人停止某種行為，非常不禮貌的用語。,成日扮哂野咁，收皮啦！
放飛機,2010,已答應會出席，但最後卻沒有出席,傻強又話今日一定黎到，點知又放我地飛機！
o靚模,2010,年輕的女性模特兒,聽講今年書展會有好多o靚模搞簽名會喎！
十卜,2010,英語「Support」的粵語簡音，表示支持的意思。,聽日的比賽我會全力十卜你！
屈機,2010,實力比對手強很多，令對手毫無招架能力。,"1. 無計，對方咁屈機，無得打！
2. 美斯快d出場屈佢地機啦！
3. 呂布屈哂機，單挑根本無可能打得勝佢！"
O嘴,2010,指口部張開得很大，呈O形，驚訝的表情。亦可以寫成「O咀」或「O左」。,"1. 傻強話佢炒一轉iPhone賺左兩萬蚊，聽到我O哂嘴！
2. O左嘴，五音不全既阿英竟然爆冷贏左校際歌唱比賽冠軍..."
升呢,2010,網絡遊戲術語，升級的意思。,"1. 你個仔出左世喇？恭喜你「升呢」做爸爸！
2. 最近大陸個防火長城升左呢，block哂所有VPN，以後都翻唔到牆了...
3. 無打古惑仔online幾日，俾人追過哂level，今晚返屋企要快d升呢先得！
4. 為左影多d靚相，我決定要幫部相機升呢！
5. 幾經辛苦終於儲夠首期，可以升呢做業主了。"
XOXO,2010,XOXO中的X代表親親（kiss），O代表抱抱（hug），XOXO是指親親抱抱。常見於短信或書信，親友、戀人之間會在信末寫上XOXO，代表一份友誼或愛情。,"1. 花邊教主 Gossip Girl在每一集的最後都會出現XOXO就是親親抱抱的意思。
2. I miss you. XOXO"
你咁龜,2010,即「冇膽鬼」，形容一個人沒有膽量，也可以寫成「你咁龜毛」。,"1. 你咁龜點樣做大事呀！
2. 未見過人好似你咁龜毛，乜都驚.."
cfu,2010,cfu為「師傅」的諳音。,"1. 唉，搵cfu真係要小心啲。我搵呢個cfu之前明明報左呢個價，點知呢樣又話要加錢，果樣又話要加錢...
2. 陣間2點會有cfu上黎整水喉，記得要留係屋企。
3. 你好，你可以叫我暉cfu！"
放毒,2010,「放毒」是指將美食照片分享至社交平台而令人垂涎欲滴，分享旅遊照片從而勾起大家對旅行的欲望也可以稱為「放毒」。,"1. 你唔好半夜三更係度放毒啦，好肚餓呀！
2. 知你有得旅行喇，成日係度放毒..."
平行時空,2010,「平行時空」亦有人稱作「平行宇宙」或「平行世界」，是指另一個世界裡面有另一個自己過著不一樣的生活，有著不一樣的故事。,你信唔信有平行時空？唔知另一個世界既自己係度做緊乜呢？
好cam,2010,「好cam」用來形容某人娘娘腔，即乸型，或好基。,"1. 佢好cam呀，成日講野好似個女仔咁陰聲細氣..
2. 小心佢cam cam地架！"
燈神,2010,「燈神」是指一些經常在股市、賭博、寶事等中預測結果，但最終結果剛剛跟其預測相反。,"1. 唔係下嘛，燈神講野你都信？
2. 燈神話呢隻股票會大升，千祈唔好買呀！"
裝逼,2010,「裝逼」亦可寫成「裝b」，是指裝厲害、裝模作樣、扮哂野的意思。,而家d學生咁鐘意裝逼。
6299,2010,6299中的62是「老爺」的諧音，99的英名nine nine則是「奶奶」的諧音，加起上來就是老爺奶奶。,Sorry 我今晚黎唔到呀，我約左6299食飯。
mm7,2010,mm7是「正」的意思。註：mm7為「正」字的速成碼。,"1. 呢套戲真係好mm7！
2. 最mm7係個女主角，好型！"
